simulation/qsim/hash_game.msim.vcd
$comment
	File created using the following command:
		vcd file hash_game.msim.vcd -direction
$end
$date
	Wed May 19 00:05:20 2021
$end
$version
	ModelSim Version 2020.1
$end
$timescale
	1ps
$end

$scope module hash_game_vlg_vec_tst $end
$var reg 1 ! APERTOU_J1 $end
$var reg 1 " APERTOU_J2 $end
$var reg 1 # CLK $end
$var reg 1 $ RESET $end
$var reg 4 % SEL_J1 [3:0] $end
$var reg 4 & SEL_J2 [3:0] $end
$var wire 1 ' EMPATE $end
$var wire 1 ( QUADRO0 [6] $end
$var wire 1 ) QUADRO0 [5] $end
$var wire 1 * QUADRO0 [4] $end
$var wire 1 + QUADRO0 [3] $end
$var wire 1 , QUADRO0 [2] $end
$var wire 1 - QUADRO0 [1] $end
$var wire 1 . QUADRO0 [0] $end
$var wire 1 / QUADRO1 [6] $end
$var wire 1 0 QUADRO1 [5] $end
$var wire 1 1 QUADRO1 [4] $end
$var wire 1 2 QUADRO1 [3] $end
$var wire 1 3 QUADRO1 [2] $end
$var wire 1 4 QUADRO1 [1] $end
$var wire 1 5 QUADRO1 [0] $end
$var wire 1 6 QUADRO2 [6] $end
$var wire 1 7 QUADRO2 [5] $end
$var wire 1 8 QUADRO2 [4] $end
$var wire 1 9 QUADRO2 [3] $end
$var wire 1 : QUADRO2 [2] $end
$var wire 1 ; QUADRO2 [1] $end
$var wire 1 < QUADRO2 [0] $end
$var wire 1 = QUADRO3 [6] $end
$var wire 1 > QUADRO3 [5] $end
$var wire 1 ? QUADRO3 [4] $end
$var wire 1 @ QUADRO3 [3] $end
$var wire 1 A QUADRO3 [2] $end
$var wire 1 B QUADRO3 [1] $end
$var wire 1 C QUADRO3 [0] $end
$var wire 1 D QUADRO4 [6] $end
$var wire 1 E QUADRO4 [5] $end
$var wire 1 F QUADRO4 [4] $end
$var wire 1 G QUADRO4 [3] $end
$var wire 1 H QUADRO4 [2] $end
$var wire 1 I QUADRO4 [1] $end
$var wire 1 J QUADRO4 [0] $end
$var wire 1 K QUADRO5 [6] $end
$var wire 1 L QUADRO5 [5] $end
$var wire 1 M QUADRO5 [4] $end
$var wire 1 N QUADRO5 [3] $end
$var wire 1 O QUADRO5 [2] $end
$var wire 1 P QUADRO5 [1] $end
$var wire 1 Q QUADRO5 [0] $end
$var wire 1 R QUADRO6 [6] $end
$var wire 1 S QUADRO6 [5] $end
$var wire 1 T QUADRO6 [4] $end
$var wire 1 U QUADRO6 [3] $end
$var wire 1 V QUADRO6 [2] $end
$var wire 1 W QUADRO6 [1] $end
$var wire 1 X QUADRO6 [0] $end
$var wire 1 Y QUADRO7 [6] $end
$var wire 1 Z QUADRO7 [5] $end
$var wire 1 [ QUADRO7 [4] $end
$var wire 1 \ QUADRO7 [3] $end
$var wire 1 ] QUADRO7 [2] $end
$var wire 1 ^ QUADRO7 [1] $end
$var wire 1 _ QUADRO7 [0] $end
$var wire 1 ` QUADRO8 [6] $end
$var wire 1 a QUADRO8 [5] $end
$var wire 1 b QUADRO8 [4] $end
$var wire 1 c QUADRO8 [3] $end
$var wire 1 d QUADRO8 [2] $end
$var wire 1 e QUADRO8 [1] $end
$var wire 1 f QUADRO8 [0] $end
$var wire 1 g VENCEU $end
$var wire 1 h VEZ_DO_JOGADOR $end

$scope module i1 $end
$var wire 1 i gnd $end
$var wire 1 j vcc $end
$var wire 1 k unknown $end
$var tri1 1 l devclrn $end
$var tri1 1 m devpor $end
$var tri1 1 n devoe $end
$var wire 1 o VENCEU~output_o $end
$var wire 1 p EMPATE~output_o $end
$var wire 1 q VEZ_DO_JOGADOR~output_o $end
$var wire 1 r QUADRO0[6]~output_o $end
$var wire 1 s QUADRO0[5]~output_o $end
$var wire 1 t QUADRO0[4]~output_o $end
$var wire 1 u QUADRO0[3]~output_o $end
$var wire 1 v QUADRO0[2]~output_o $end
$var wire 1 w QUADRO0[1]~output_o $end
$var wire 1 x QUADRO0[0]~output_o $end
$var wire 1 y QUADRO1[6]~output_o $end
$var wire 1 z QUADRO1[5]~output_o $end
$var wire 1 { QUADRO1[4]~output_o $end
$var wire 1 | QUADRO1[3]~output_o $end
$var wire 1 } QUADRO1[2]~output_o $end
$var wire 1 ~ QUADRO1[1]~output_o $end
$var wire 1 !! QUADRO1[0]~output_o $end
$var wire 1 "! QUADRO2[6]~output_o $end
$var wire 1 #! QUADRO2[5]~output_o $end
$var wire 1 $! QUADRO2[4]~output_o $end
$var wire 1 %! QUADRO2[3]~output_o $end
$var wire 1 &! QUADRO2[2]~output_o $end
$var wire 1 '! QUADRO2[1]~output_o $end
$var wire 1 (! QUADRO2[0]~output_o $end
$var wire 1 )! QUADRO3[6]~output_o $end
$var wire 1 *! QUADRO3[5]~output_o $end
$var wire 1 +! QUADRO3[4]~output_o $end
$var wire 1 ,! QUADRO3[3]~output_o $end
$var wire 1 -! QUADRO3[2]~output_o $end
$var wire 1 .! QUADRO3[1]~output_o $end
$var wire 1 /! QUADRO3[0]~output_o $end
$var wire 1 0! QUADRO4[6]~output_o $end
$var wire 1 1! QUADRO4[5]~output_o $end
$var wire 1 2! QUADRO4[4]~output_o $end
$var wire 1 3! QUADRO4[3]~output_o $end
$var wire 1 4! QUADRO4[2]~output_o $end
$var wire 1 5! QUADRO4[1]~output_o $end
$var wire 1 6! QUADRO4[0]~output_o $end
$var wire 1 7! QUADRO5[6]~output_o $end
$var wire 1 8! QUADRO5[5]~output_o $end
$var wire 1 9! QUADRO5[4]~output_o $end
$var wire 1 :! QUADRO5[3]~output_o $end
$var wire 1 ;! QUADRO5[2]~output_o $end
$var wire 1 <! QUADRO5[1]~output_o $end
$var wire 1 =! QUADRO5[0]~output_o $end
$var wire 1 >! QUADRO6[6]~output_o $end
$var wire 1 ?! QUADRO6[5]~output_o $end
$var wire 1 @! QUADRO6[4]~output_o $end
$var wire 1 A! QUADRO6[3]~output_o $end
$var wire 1 B! QUADRO6[2]~output_o $end
$var wire 1 C! QUADRO6[1]~output_o $end
$var wire 1 D! QUADRO6[0]~output_o $end
$var wire 1 E! QUADRO7[6]~output_o $end
$var wire 1 F! QUADRO7[5]~output_o $end
$var wire 1 G! QUADRO7[4]~output_o $end
$var wire 1 H! QUADRO7[3]~output_o $end
$var wire 1 I! QUADRO7[2]~output_o $end
$var wire 1 J! QUADRO7[1]~output_o $end
$var wire 1 K! QUADRO7[0]~output_o $end
$var wire 1 L! QUADRO8[6]~output_o $end
$var wire 1 M! QUADRO8[5]~output_o $end
$var wire 1 N! QUADRO8[4]~output_o $end
$var wire 1 O! QUADRO8[3]~output_o $end
$var wire 1 P! QUADRO8[2]~output_o $end
$var wire 1 Q! QUADRO8[1]~output_o $end
$var wire 1 R! QUADRO8[0]~output_o $end
$var wire 1 S! CLK~input_o $end
$var wire 1 T! CLK~inputclkctrl_outclk $end
$var wire 1 U! APERTOU_J2~input_o $end
$var wire 1 V! APERTOU_J1~input_o $end
$var wire 1 W! inst8~8_combout $end
$var wire 1 X! inst8~q $end
$var wire 1 Y! RESET~input_o $end
$var wire 1 Z! SEL_J2[3]~input_o $end
$var wire 1 [! SEL_J2[0]~input_o $end
$var wire 1 \! CONTROLE_2|inst~0_combout $end
$var wire 1 ]! MEMO_J2|inst|inst8~0_combout $end
$var wire 1 ^! SEL_J2[1]~input_o $end
$var wire 1 _! SEL_J2[2]~input_o $end
$var wire 1 `! MEMO_J2|inst|inst18~0_combout $end
$var wire 1 a! MEMO_J2|inst6|inst10~0_combout $end
$var wire 1 b! MEMO_J2|inst6|inst10~q $end
$var wire 1 c! CONTROLE_1|inst~0_combout $end
$var wire 1 d! SEL_J1[2]~input_o $end
$var wire 1 e! SEL_J1[1]~input_o $end
$var wire 1 f! MEMO_J1|inst|inst18~0_combout $end
$var wire 1 g! SEL_J1[3]~input_o $end
$var wire 1 h! SEL_J1[0]~input_o $end
$var wire 1 i! MEMO_J1|inst|inst8~0_combout $end
$var wire 1 j! MEMO_J1|inst6|inst10~0_combout $end
$var wire 1 k! MEMO_J1|inst6|inst10~q $end
$var wire 1 l! inst|inst99|inst6|inst3~0_combout $end
$var wire 1 m! MEMO_J2|inst8|inst10~0_combout $end
$var wire 1 n! MEMO_J2|inst8|inst10~1_combout $end
$var wire 1 o! MEMO_J2|inst8|inst10~q $end
$var wire 1 p! MEMO_J1|inst8|inst10~0_combout $end
$var wire 1 q! MEMO_J1|inst8|inst10~1_combout $end
$var wire 1 r! MEMO_J1|inst8|inst10~q $end
$var wire 1 s! inst|inst99|inst5|inst3~0_combout $end
$var wire 1 t! MEMO_J2|inst|inst14~0_combout $end
$var wire 1 u! MEMO_J2|inst4|inst10~0_combout $end
$var wire 1 v! MEMO_J2|inst4|inst10~q $end
$var wire 1 w! MEMO_J1|inst|inst14~0_combout $end
$var wire 1 x! MEMO_J1|inst4|inst10~0_combout $end
$var wire 1 y! MEMO_J1|inst4|inst10~q $end
$var wire 1 z! inst|inst99|inst2|inst3~0_combout $end
$var wire 1 {! MEMO_J1|inst|inst7~0_combout $end
$var wire 1 |! MEMO_J1|inst3|inst10~0_combout $end
$var wire 1 }! MEMO_J1|inst3|inst10~q $end
$var wire 1 ~! MEMO_J2|inst|inst7~0_combout $end
$var wire 1 !" MEMO_J2|inst3|inst10~0_combout $end
$var wire 1 "" MEMO_J2|inst3|inst10~q $end
$var wire 1 #" inst|inst99|inst1|inst3~0_combout $end
$var wire 1 $" MEMO_J2|inst|inst10~0_combout $end
$var wire 1 %" MEMO_J2|inst2|inst10~0_combout $end
$var wire 1 &" MEMO_J2|inst2|inst10~q $end
$var wire 1 '" MEMO_J1|inst|inst10~0_combout $end
$var wire 1 (" MEMO_J1|inst2|inst10~0_combout $end
$var wire 1 )" MEMO_J1|inst2|inst10~q $end
$var wire 1 *" inst|inst99|inst|inst3~0_combout $end
$var wire 1 +" MEMO_J2|inst|inst7~1_combout $end
$var wire 1 ," MEMO_J2|inst7|inst10~0_combout $end
$var wire 1 -" MEMO_J2|inst7|inst10~q $end
$var wire 1 ." MEMO_J1|inst|inst7~1_combout $end
$var wire 1 /" MEMO_J1|inst7|inst10~0_combout $end
$var wire 1 0" MEMO_J1|inst7|inst10~q $end
$var wire 1 1" inst|inst99|inst4|inst3~0_combout $end
$var wire 1 2" inst99|inst~0_combout $end
$var wire 1 3" MEMO_J1|inst|inst25~0_combout $end
$var wire 1 4" MEMO_J1|inst9|inst10~0_combout $end
$var wire 1 5" MEMO_J1|inst9|inst10~q $end
$var wire 1 6" MEMO_J2|inst|inst25~0_combout $end
$var wire 1 7" MEMO_J2|inst9|inst10~0_combout $end
$var wire 1 8" MEMO_J2|inst9|inst10~q $end
$var wire 1 9" inst|inst99|inst7|inst3~0_combout $end
$var wire 1 :" MEMO_J1|inst5|inst10~0_combout $end
$var wire 1 ;" MEMO_J1|inst5|inst10~q $end
$var wire 1 <" MEMO_J2|inst5|inst10~0_combout $end
$var wire 1 =" MEMO_J2|inst5|inst10~q $end
$var wire 1 >" inst|inst99|inst3|inst3~0_combout $end
$var wire 1 ?" inst99|inst~1_combout $end
$var wire 1 @" inst99|inst~2_combout $end
$var wire 1 A" inst99|inst~3_combout $end
$var wire 1 B" MEMO_J2|inst10|inst10~0_combout $end
$var wire 1 C" MEMO_J2|inst10|inst10~1_combout $end
$var wire 1 D" MEMO_J2|inst10|inst10~2_combout $end
$var wire 1 E" MEMO_J2|inst10|inst10~q $end
$var wire 1 F" MEMO_J1|inst|inst10~1_combout $end
$var wire 1 G" MEMO_J1|inst10|inst10~0_combout $end
$var wire 1 H" MEMO_J1|inst10|inst10~q $end
$var wire 1 I" inst|inst99|inst74|inst3~0_combout $end
$var wire 1 J" inst99|inst~4_combout $end
$var wire 1 K" inst99|inst~5_combout $end
$var wire 1 L" PARTIDA_QUADROS|VISOR0|inst|e_and~0_combout $end
$var wire 1 M" PARTIDA_QUADROS|VISOR1|inst|e_and~0_combout $end
$var wire 1 N" PARTIDA_QUADROS|VISOR2|inst|e_and~0_combout $end
$var wire 1 O" PARTIDA_QUADROS|VISOR3|inst|e_and~0_combout $end
$var wire 1 P" PARTIDA_QUADROS|VISOR4|inst|e_and~0_combout $end
$var wire 1 Q" PARTIDA_QUADROS|VISOR5|inst|e_and~0_combout $end
$var wire 1 R" PARTIDA_QUADROS|VISOR6|inst|e_and~0_combout $end
$var wire 1 S" PARTIDA_QUADROS|VISOR7|inst|e_and~0_combout $end
$var wire 1 T" PARTIDA_QUADROS|VISOR8|inst|e_and~0_combout $end
$upscope $end
$upscope $end
$enddefinitions $end
#0
$dumpvars
1!
0"
0#
0$
b1001 %
b0 &
0'
1.
1-
1,
1+
1*
1)
1(
15
14
13
12
11
10
1/
1<
1;
1:
19
18
17
16
1C
1B
1A
1@
1?
1>
1=
1J
1I
1H
1G
1F
1E
1D
1Q
1P
1O
1N
1M
1L
1K
1X
1W
1V
1U
1T
1S
1R
1_
1^
1]
1\
1[
1Z
1Y
1f
1e
1d
1c
1b
1a
1`
0g
0h
0i
1j
xk
1l
1m
1n
0o
0p
0q
1r
1s
1t
1u
1v
1w
1x
1y
1z
1{
1|
1}
1~
1!!
1"!
1#!
1$!
1%!
1&!
1'!
1(!
1)!
1*!
1+!
1,!
1-!
1.!
1/!
10!
11!
12!
13!
14!
15!
16!
17!
18!
19!
1:!
1;!
1<!
1=!
1>!
1?!
1@!
1A!
1B!
1C!
1D!
1E!
1F!
1G!
1H!
1I!
1J!
1K!
1L!
1M!
1N!
1O!
1P!
1Q!
1R!
0S!
0T!
0U!
1V!
1W!
0X!
0Y!
0Z!
0[!
0\!
0]!
0^!
0_!
0`!
0a!
0b!
1c!
0d!
0e!
0f!
1g!
1h!
0i!
0j!
0k!
0l!
0m!
0n!
0o!
0p!
0q!
0r!
0s!
0t!
0u!
0v!
0w!
0x!
0y!
0z!
0{!
0|!
0}!
1~!
0!"
0""
0#"
1$"
0%"
0&"
1'"
0("
0)"
0*"
0+"
0,"
0-"
0."
0/"
00"
01"
02"
03"
04"
05"
06"
07"
08"
09"
0:"
0;"
0<"
0="
0>"
0?"
0@"
0A"
0B"
0C"
0D"
0E"
1F"
1G"
0H"
0I"
0J"
0K"
1L"
1M"
1N"
1O"
1P"
1Q"
1R"
1S"
1T"
$end
#10000
1#
1S!
1T!
1H"
1X!
1q
0L!
0c!
0`
1h
0F"
1{!
#20000
b1 %
b0 %
1"
b10 &
0#
1U!
1^!
0h!
0g!
0S!
0T!
1\!
0W!
1B"
0$"
1t!
1!"
#30000
1#
1S!
1T!
1""
0X!
0q
1I"
1c!
0\!
0h
0M"
1W!
0{
0~
0B"
1$"
0t!
04
01
#40000
b1000 %
0"
b0 &
0#
0U!
0^!
1g!
0S!
0T!
13"
0{!
14"
#50000
1#
1S!
1T!
15"
1X!
1q
0E!
0I"
1#"
0c!
0Y
1h
03"
1{!
#60000
0!
b0 %
0#
0V!
0g!
0S!
0T!
#70000
1#
1S!
1T!
#80000
b1 &
1"
0#
1[!
1U!
0S!
0T!
1\!
0W!
1B"
0~!
1]!
1%"
#90000
1#
1S!
1T!
1&"
0X!
0q
1I"
19"
0#"
0\!
0h
0L"
0t
0w
1?"
0B"
1~!
0]!
0-
0*
#100000
b0 &
0"
0#
0[!
0U!
0S!
0T!
#110000
b100 %
b110 %
b111 %
1!
1#
1h!
1e!
1d!
1V!
1S!
1T!
1c!
1W!
1."
0'"
0{!
1i!
1q!
#120000
0#
0S!
0T!
#130000
b11 %
b1 %
b0 %
0!
1#
0h!
0e!
0d!
0V!
1S!
1T!
1{!
0i!
0."
1'"
0c!
0q!
0W!
1r!
1X!
1q
0>!
1p!
0I"
09"
1*"
1#"
0R
1h
1W!
0?"
12"
1q!
#140000
0#
0S!
0T!
#150000
1#
1S!
1T!
#160000
0#
0S!
0T!
#170000
1#
1S!
1T!
#180000
0#
0S!
0T!
#190000
1#
1S!
1T!
#200000
0#
0S!
0T!
#210000
1#
1S!
1T!
#220000
0#
0S!
0T!
#230000
1#
1S!
1T!
#240000
0#
0S!
0T!
#250000
1#
1S!
1T!
#260000
0#
0S!
0T!
#270000
1#
1S!
1T!
#280000
0#
0S!
0T!
#290000
1#
1S!
1T!
#300000
0#
0S!
0T!
#310000
1#
1S!
1T!
#320000
0#
0S!
0T!
#330000
1#
1S!
1T!
#340000
0#
0S!
0T!
#350000
1#
1S!
1T!
#360000
0#
0S!
0T!
#370000
1#
1S!
1T!
#380000
0#
0S!
0T!
#390000
1#
1S!
1T!
#400000
0#
0S!
0T!
#410000
1#
1S!
1T!
#420000
0#
0S!
0T!
#430000
1#
1S!
1T!
#440000
0#
0S!
0T!
#450000
1#
1S!
1T!
#460000
0#
0S!
0T!
#470000
1#
1S!
1T!
#480000
0#
0S!
0T!
#490000
1#
1S!
1T!
#500000
0#
0S!
0T!
#510000
1#
1S!
1T!
#520000
0#
0S!
0T!
#530000
1#
1S!
1T!
#540000
0#
0S!
0T!
#550000
1#
1S!
1T!
#560000
0#
0S!
0T!
#570000
1#
1S!
1T!
#580000
0#
0S!
0T!
#590000
1#
1S!
1T!
#600000
0#
0S!
0T!
#610000
1#
1S!
1T!
#620000
0#
0S!
0T!
#630000
1#
1S!
1T!
#640000
0#
0S!
0T!
#650000
1#
1S!
1T!
#660000
0#
0S!
0T!
#670000
1#
1S!
1T!
#680000
0#
0S!
0T!
#690000
1#
1S!
1T!
#700000
0#
0S!
0T!
#710000
1#
1S!
1T!
#720000
0#
0S!
0T!
#730000
1#
1S!
1T!
#740000
0#
0S!
0T!
#750000
1#
1S!
1T!
#760000
0#
0S!
0T!
#770000
1#
1S!
1T!
#780000
0#
0S!
0T!
#790000
1#
1S!
1T!
#800000
0#
0S!
0T!
#810000
1#
1S!
1T!
#820000
0#
0S!
0T!
#830000
1#
1S!
1T!
#840000
0#
0S!
0T!
#850000
1#
1S!
1T!
#860000
0#
0S!
0T!
#870000
1#
1S!
1T!
#880000
0#
0S!
0T!
#890000
1#
1S!
1T!
#900000
0#
0S!
0T!
#910000
1#
1S!
1T!
#920000
0#
0S!
0T!
#930000
1#
1S!
1T!
#940000
0#
0S!
0T!
#950000
1#
1S!
1T!
#960000
0#
0S!
0T!
#970000
1#
1S!
1T!
#980000
0#
0S!
0T!
#990000
1#
1S!
1T!
