simulation/qsim/hash_game.msim.vcd
$comment
	File created using the following command:
		vcd file hash_game.msim.vcd -direction
$end
$date
	Thu May 20 18:08:20 2021
$end
$version
	ModelSim Version 2020.1
$end
$timescale
	1ps
$end

$scope module jogo_da_velha_vlg_vec_tst $end
$var reg 1 ! CLK $end
$var reg 1 " J1_ATIVO $end
$var reg 4 # J1_SEL [3:0] $end
$var reg 1 $ J2_ATIVO $end
$var reg 4 % J2_SEL [3:0] $end
$var reg 1 & RESET $end
$var wire 1 ' EMPATE $end
$var wire 1 ( LOG_controle1CargaS $end
$var wire 1 ) LOG_controle2CargaS $end
$var wire 1 * LOG_selmem_sel [3] $end
$var wire 1 + LOG_selmem_sel [2] $end
$var wire 1 , LOG_selmem_sel [1] $end
$var wire 1 - LOG_selmem_sel [0] $end
$var wire 1 . LOG_selmemCargaS $end
$var wire 1 / LOG_vsvenceuCargaE $end
$var wire 1 0 PARTIDA_ATIVA $end
$var wire 1 1 QUADRO0 [6] $end
$var wire 1 2 QUADRO0 [5] $end
$var wire 1 3 QUADRO0 [4] $end
$var wire 1 4 QUADRO0 [3] $end
$var wire 1 5 QUADRO0 [2] $end
$var wire 1 6 QUADRO0 [1] $end
$var wire 1 7 QUADRO0 [0] $end
$var wire 1 8 QUADRO1 [6] $end
$var wire 1 9 QUADRO1 [5] $end
$var wire 1 : QUADRO1 [4] $end
$var wire 1 ; QUADRO1 [3] $end
$var wire 1 < QUADRO1 [2] $end
$var wire 1 = QUADRO1 [1] $end
$var wire 1 > QUADRO1 [0] $end
$var wire 1 ? QUADRO2 [6] $end
$var wire 1 @ QUADRO2 [5] $end
$var wire 1 A QUADRO2 [4] $end
$var wire 1 B QUADRO2 [3] $end
$var wire 1 C QUADRO2 [2] $end
$var wire 1 D QUADRO2 [1] $end
$var wire 1 E QUADRO2 [0] $end
$var wire 1 F QUADRO3 [6] $end
$var wire 1 G QUADRO3 [5] $end
$var wire 1 H QUADRO3 [4] $end
$var wire 1 I QUADRO3 [3] $end
$var wire 1 J QUADRO3 [2] $end
$var wire 1 K QUADRO3 [1] $end
$var wire 1 L QUADRO3 [0] $end
$var wire 1 M QUADRO4 [6] $end
$var wire 1 N QUADRO4 [5] $end
$var wire 1 O QUADRO4 [4] $end
$var wire 1 P QUADRO4 [3] $end
$var wire 1 Q QUADRO4 [2] $end
$var wire 1 R QUADRO4 [1] $end
$var wire 1 S QUADRO4 [0] $end
$var wire 1 T QUADRO5 [6] $end
$var wire 1 U QUADRO5 [5] $end
$var wire 1 V QUADRO5 [4] $end
$var wire 1 W QUADRO5 [3] $end
$var wire 1 X QUADRO5 [2] $end
$var wire 1 Y QUADRO5 [1] $end
$var wire 1 Z QUADRO5 [0] $end
$var wire 1 [ QUADRO6 [6] $end
$var wire 1 \ QUADRO6 [5] $end
$var wire 1 ] QUADRO6 [4] $end
$var wire 1 ^ QUADRO6 [3] $end
$var wire 1 _ QUADRO6 [2] $end
$var wire 1 ` QUADRO6 [1] $end
$var wire 1 a QUADRO6 [0] $end
$var wire 1 b QUADRO7 [6] $end
$var wire 1 c QUADRO7 [5] $end
$var wire 1 d QUADRO7 [4] $end
$var wire 1 e QUADRO7 [3] $end
$var wire 1 f QUADRO7 [2] $end
$var wire 1 g QUADRO7 [1] $end
$var wire 1 h QUADRO7 [0] $end
$var wire 1 i QUADRO8 [6] $end
$var wire 1 j QUADRO8 [5] $end
$var wire 1 k QUADRO8 [4] $end
$var wire 1 l QUADRO8 [3] $end
$var wire 1 m QUADRO8 [2] $end
$var wire 1 n QUADRO8 [1] $end
$var wire 1 o QUADRO8 [0] $end
$var wire 1 p VENCEU $end
$var wire 1 q VEZ_DO_J1 $end
$var wire 1 r VEZ_DO_J2 $end

$scope module i1 $end
$var wire 1 s gnd $end
$var wire 1 t vcc $end
$var wire 1 u unknown $end
$var tri1 1 v devclrn $end
$var tri1 1 w devpor $end
$var tri1 1 x devoe $end
$var wire 1 y VEZ_DO_J1~output_o $end
$var wire 1 z VEZ_DO_J2~output_o $end
$var wire 1 { PARTIDA_ATIVA~output_o $end
$var wire 1 | LOG_selmemCargaS~output_o $end
$var wire 1 } LOG_controle2CargaS~output_o $end
$var wire 1 ~ LOG_controle1CargaS~output_o $end
$var wire 1 !! VENCEU~output_o $end
$var wire 1 "! EMPATE~output_o $end
$var wire 1 #! LOG_vsvenceuCargaE~output_o $end
$var wire 1 $! LOG_selmem_sel[3]~output_o $end
$var wire 1 %! LOG_selmem_sel[2]~output_o $end
$var wire 1 &! LOG_selmem_sel[1]~output_o $end
$var wire 1 '! LOG_selmem_sel[0]~output_o $end
$var wire 1 (! QUADRO0[6]~output_o $end
$var wire 1 )! QUADRO0[5]~output_o $end
$var wire 1 *! QUADRO0[4]~output_o $end
$var wire 1 +! QUADRO0[3]~output_o $end
$var wire 1 ,! QUADRO0[2]~output_o $end
$var wire 1 -! QUADRO0[1]~output_o $end
$var wire 1 .! QUADRO0[0]~output_o $end
$var wire 1 /! QUADRO1[6]~output_o $end
$var wire 1 0! QUADRO1[5]~output_o $end
$var wire 1 1! QUADRO1[4]~output_o $end
$var wire 1 2! QUADRO1[3]~output_o $end
$var wire 1 3! QUADRO1[2]~output_o $end
$var wire 1 4! QUADRO1[1]~output_o $end
$var wire 1 5! QUADRO1[0]~output_o $end
$var wire 1 6! QUADRO2[6]~output_o $end
$var wire 1 7! QUADRO2[5]~output_o $end
$var wire 1 8! QUADRO2[4]~output_o $end
$var wire 1 9! QUADRO2[3]~output_o $end
$var wire 1 :! QUADRO2[2]~output_o $end
$var wire 1 ;! QUADRO2[1]~output_o $end
$var wire 1 <! QUADRO2[0]~output_o $end
$var wire 1 =! QUADRO3[6]~output_o $end
$var wire 1 >! QUADRO3[5]~output_o $end
$var wire 1 ?! QUADRO3[4]~output_o $end
$var wire 1 @! QUADRO3[3]~output_o $end
$var wire 1 A! QUADRO3[2]~output_o $end
$var wire 1 B! QUADRO3[1]~output_o $end
$var wire 1 C! QUADRO3[0]~output_o $end
$var wire 1 D! QUADRO4[6]~output_o $end
$var wire 1 E! QUADRO4[5]~output_o $end
$var wire 1 F! QUADRO4[4]~output_o $end
$var wire 1 G! QUADRO4[3]~output_o $end
$var wire 1 H! QUADRO4[2]~output_o $end
$var wire 1 I! QUADRO4[1]~output_o $end
$var wire 1 J! QUADRO4[0]~output_o $end
$var wire 1 K! QUADRO5[6]~output_o $end
$var wire 1 L! QUADRO5[5]~output_o $end
$var wire 1 M! QUADRO5[4]~output_o $end
$var wire 1 N! QUADRO5[3]~output_o $end
$var wire 1 O! QUADRO5[2]~output_o $end
$var wire 1 P! QUADRO5[1]~output_o $end
$var wire 1 Q! QUADRO5[0]~output_o $end
$var wire 1 R! QUADRO6[6]~output_o $end
$var wire 1 S! QUADRO6[5]~output_o $end
$var wire 1 T! QUADRO6[4]~output_o $end
$var wire 1 U! QUADRO6[3]~output_o $end
$var wire 1 V! QUADRO6[2]~output_o $end
$var wire 1 W! QUADRO6[1]~output_o $end
$var wire 1 X! QUADRO6[0]~output_o $end
$var wire 1 Y! QUADRO7[6]~output_o $end
$var wire 1 Z! QUADRO7[5]~output_o $end
$var wire 1 [! QUADRO7[4]~output_o $end
$var wire 1 \! QUADRO7[3]~output_o $end
$var wire 1 ]! QUADRO7[2]~output_o $end
$var wire 1 ^! QUADRO7[1]~output_o $end
$var wire 1 _! QUADRO7[0]~output_o $end
$var wire 1 `! QUADRO8[6]~output_o $end
$var wire 1 a! QUADRO8[5]~output_o $end
$var wire 1 b! QUADRO8[4]~output_o $end
$var wire 1 c! QUADRO8[3]~output_o $end
$var wire 1 d! QUADRO8[2]~output_o $end
$var wire 1 e! QUADRO8[1]~output_o $end
$var wire 1 f! QUADRO8[0]~output_o $end
$var wire 1 g! CLK~input_o $end
$var wire 1 h! CLK~inputclkctrl_outclk $end
$var wire 1 i! RESET~input_o $end
$var wire 1 j! J2_MEMO|inst2|inst10~0_combout $end
$var wire 1 k! J1_SEL[1]~input_o $end
$var wire 1 l! J1_ATIVO~input_o $end
$var wire 1 m! J2_SEL[0]~input_o $end
$var wire 1 n! J1_SEL[0]~input_o $end
$var wire 1 o! J2_ATIVO~input_o $end
$var wire 1 p! inst6|inst|inst7|inst3~0_combout $end
$var wire 1 q! inst6|inst|inst7|inst3~2_combout $end
$var wire 1 r! inst1|inst1|inst3~0_combout $end
$var wire 1 s! inst1|inst6~q $end
$var wire 1 t! inst|inst1|inst3~0_combout $end
$var wire 1 u! inst|inst6~q $end
$var wire 1 v! OR2_SELMEM~combout $end
$var wire 1 w! inst6|inst|inst10~q $end
$var wire 1 x! J1_SEL[3]~input_o $end
$var wire 1 y! J2_SEL[3]~input_o $end
$var wire 1 z! inst6|inst3|inst7|inst3~0_combout $end
$var wire 1 {! inst6|inst3|inst10~q $end
$var wire 1 |! J2_SEL[2]~input_o $end
$var wire 1 }! J1_SEL[2]~input_o $end
$var wire 1 ~! inst6|inst2|inst7|inst3~0_combout $end
$var wire 1 !" inst6|inst2|inst10~q $end
$var wire 1 "" J1_MEMO|inst|inst8~combout $end
$var wire 1 #" J1_MEMO|inst2|inst10~0_combout $end
$var wire 1 $" J1_MEMO|inst8|inst10~0_combout $end
$var wire 1 %" J1_MEMO|inst8|inst10~q $end
$var wire 1 &" J2_MEMO|inst8|inst10~0_combout $end
$var wire 1 '" J2_MEMO|inst8|inst10~q $end
$var wire 1 (" inst17|inst4n1~0_combout $end
$var wire 1 )" J1_MEMO|inst|inst14~combout $end
$var wire 1 *" J1_MEMO|inst3|inst10~0_combout $end
$var wire 1 +" J1_MEMO|inst3|inst10~q $end
$var wire 1 ," J2_MEMO|inst3|inst10~0_combout $end
$var wire 1 -" J2_MEMO|inst3|inst10~q $end
$var wire 1 ." J1_MEMO|inst|inst13~0_combout $end
$var wire 1 /" J1_MEMO|inst2|inst10~1_combout $end
$var wire 1 0" J1_MEMO|inst2|inst10~q $end
$var wire 1 1" J2_MEMO|inst2|inst10~1_combout $end
$var wire 1 2" J2_MEMO|inst2|inst10~q $end
$var wire 1 3" inst13|inst15~0_combout $end
$var wire 1 4" J1_MEMO|inst|inst10~combout $end
$var wire 1 5" J1_MEMO|inst10|inst10~0_combout $end
$var wire 1 6" J1_MEMO|inst10|inst10~q $end
$var wire 1 7" J2_MEMO|inst10|inst10~0_combout $end
$var wire 1 8" J2_MEMO|inst10|inst10~q $end
$var wire 1 9" J1_MEMO|inst9|inst10~0_combout $end
$var wire 1 :" J1_MEMO|inst9|inst10~q $end
$var wire 1 ;" inst13|inst49~combout $end
$var wire 1 <" J1_MEMO|inst|inst7~combout $end
$var wire 1 =" J2_MEMO|inst7|inst10~0_combout $end
$var wire 1 >" J2_MEMO|inst7|inst10~q $end
$var wire 1 ?" J1_MEMO|inst|inst28~combout $end
$var wire 1 @" J1_MEMO|inst6|inst10~0_combout $end
$var wire 1 A" J1_MEMO|inst6|inst10~q $end
$var wire 1 B" J1_MEMO|inst7|inst10~0_combout $end
$var wire 1 C" J1_MEMO|inst7|inst10~q $end
$var wire 1 D" J2_MEMO|inst6|inst10~0_combout $end
$var wire 1 E" J2_MEMO|inst6|inst10~q $end
$var wire 1 F" inst13|inst15~2_combout $end
$var wire 1 G" J1_MEMO|inst|inst18~combout $end
$var wire 1 H" J2_MEMO|inst5|inst10~0_combout $end
$var wire 1 I" J2_MEMO|inst5|inst10~q $end
$var wire 1 J" J1_MEMO|inst|inst27~combout $end
$var wire 1 K" J2_MEMO|inst4|inst10~0_combout $end
$var wire 1 L" J2_MEMO|inst4|inst10~q $end
$var wire 1 M" J1_MEMO|inst5|inst10~0_combout $end
$var wire 1 N" J1_MEMO|inst5|inst10~q $end
$var wire 1 O" J1_MEMO|inst4|inst10~0_combout $end
$var wire 1 P" J1_MEMO|inst4|inst10~q $end
$var wire 1 Q" inst13|inst15~1_combout $end
$var wire 1 R" inst13|inst15~3_combout $end
$var wire 1 S" J2_MEMO|inst011~0_combout $end
$var wire 1 T" J2_MEMO|inst011~q $end
$var wire 1 U" inst13|inst17~0_combout $end
$var wire 1 V" inst13|inst17~1_combout $end
$var wire 1 W" inst13|inst17~q $end
$var wire 1 X" inst2464|inst14~q $end
$var wire 1 Y" inst13|inst99|inst6|inst3~0_combout $end
$var wire 1 Z" inst2464|inst~8_combout $end
$var wire 1 [" inst2464|inst~7_combout $end
$var wire 1 \" inst2464|inst~9_combout $end
$var wire 1 ]" inst2464|inst~10_combout $end
$var wire 1 ^" inst2464|inst~11_combout $end
$var wire 1 _" inst2464|inst~12_combout $end
$var wire 1 `" inst13|inst99|inst74|inst3~0_combout $end
$var wire 1 a" inst13|inst99|inst|inst3~0_combout $end
$var wire 1 b" inst2464|inst~3_combout $end
$var wire 1 c" inst2464|inst~4_combout $end
$var wire 1 d" inst2464|inst~5_combout $end
$var wire 1 e" inst2464|inst~0_combout $end
$var wire 1 f" inst2464|inst~1_combout $end
$var wire 1 g" inst2464|inst~2_combout $end
$var wire 1 h" inst2464|inst~6_combout $end
$var wire 1 i" inst2464|inst~13_combout $end
$var wire 1 j" inst2464|inst13~q $end
$var wire 1 k" 015158~combout $end
$var wire 1 l" insASDt~feeder_combout $end
$var wire 1 m" insASDt~q $end
$var wire 1 n" inst6|inst|inst7|inst3~1_combout $end
$var wire 1 o" J2_SEL[1]~input_o $end
$var wire 1 p" inst6|inst1|inst7|inst3~0_combout $end
$var wire 1 q" inst6|inst1|inst10~q $end
$var wire 1 r" J1_MEMO|inst|inst25~combout $end
$var wire 1 s" J2_MEMO|inst9|inst10~0_combout $end
$var wire 1 t" J2_MEMO|inst9|inst10~q $end
$var wire 1 u" inst17|inst4n2~0_combout $end
$var wire 1 v" inst6|inst12~q $end
$var wire 1 w" inst17|inst2424~3_combout $end
$var wire 1 x" inst17|inst2424~4_combout $end
$var wire 1 y" inst17|inst4n3~0_combout $end
$var wire 1 z" inst17|inst2424~7_combout $end
$var wire 1 {" inst17|inst2424~5_combout $end
$var wire 1 |" inst17|inst2424~6_combout $end
$var wire 1 }" inst17|inst2424~1_combout $end
$var wire 1 ~" inst17|inst2424~0_combout $end
$var wire 1 !# inst17|inst2424~2_combout $end
$var wire 1 "# inst17|inst2424~8_combout $end
$var wire 1 ## inst17|instTFF~0_combout $end
$var wire 1 $# inst17|instTFF~q $end
$var wire 1 %# J1_MEMO|inst011~0_combout $end
$var wire 1 &# J1_MEMO|inst011~q $end
$var wire 1 '# inst13|inst10~0_combout $end
$var wire 1 (# inst13|inst10~q $end
$var wire 1 )# inst2464|inst2~0_combout $end
$var wire 1 *# inst2464|inst2~q $end
$var wire 1 +# inst2424~0_combout $end
$var wire 1 ,# inst2424~q $end
$var wire 1 -# inst21~combout $end
$var wire 1 .# inst35436~combout $end
$var wire 1 /# inst2464|inst15~combout $end
$var wire 1 0# VISORES|VISOR0|inst|e_and~0_combout $end
$var wire 1 1# VISORES|VISOR1|inst|e_and~0_combout $end
$var wire 1 2# VISORES|VISOR2|inst|e_and~0_combout $end
$var wire 1 3# VISORES|VISOR3|inst|e_and~0_combout $end
$var wire 1 4# VISORES|VISOR4|inst|e_and~0_combout $end
$var wire 1 5# VISORES|VISOR5|inst|e_and~0_combout $end
$var wire 1 6# VISORES|VISOR6|inst|e_and~0_combout $end
$var wire 1 7# VISORES|VISOR7|inst|e_and~0_combout $end
$var wire 1 8# VISORES|VISOR8|inst|e_and~0_combout $end
$upscope $end
$upscope $end
$enddefinitions $end
#0
$dumpvars
0!
0"
b0 #
0$
b0 %
1&
1'
0(
0)
0-
0,
0+
0*
0.
0/
00
17
16
15
14
13
12
11
1>
1=
1<
1;
1:
19
18
1E
1D
1C
1B
1A
1@
1?
1L
1K
1J
1I
1H
1G
1F
1S
1R
1Q
1P
1O
1N
1M
1Z
1Y
1X
1W
1V
1U
1T
1a
1`
1_
1^
1]
1\
1[
1h
1g
1f
1e
1d
1c
1b
1o
1n
1m
1l
1k
1j
1i
0p
0q
0r
0s
1t
xu
1v
1w
1x
0y
0z
0{
0|
0}
0~
0!!
1"!
0#!
0$!
0%!
0&!
0'!
1(!
1)!
1*!
1+!
1,!
1-!
1.!
1/!
10!
11!
12!
13!
14!
15!
16!
17!
18!
19!
1:!
1;!
1<!
1=!
1>!
1?!
1@!
1A!
1B!
1C!
1D!
1E!
1F!
1G!
1H!
1I!
1J!
1K!
1L!
1M!
1N!
1O!
1P!
1Q!
1R!
1S!
1T!
1U!
1V!
1W!
1X!
1Y!
1Z!
1[!
1\!
1]!
1^!
1_!
1`!
1a!
1b!
1c!
1d!
1e!
1f!
0g!
0h!
1i!
1j!
0k!
0l!
0m!
0n!
0o!
0p!
0q!
0r!
0s!
0t!
0u!
0v!
0w!
0x!
0y!
0z!
0{!
0|!
0}!
0~!
0!"
0""
1#"
0$"
0%"
0&"
0'"
1("
1)"
0*"
0+"
0,"
0-"
1."
0/"
00"
01"
02"
03"
04"
05"
06"
07"
08"
09"
0:"
0;"
0<"
0="
0>"
1?"
0@"
0A"
0B"
0C"
0D"
0E"
0F"
1G"
0H"
0I"
1J"
0K"
0L"
0M"
0N"
0O"
0P"
0Q"
0R"
1S"
0T"
1U"
0V"
0W"
0X"
0Y"
0Z"
0["
0\"
0]"
0^"
0_"
0`"
0a"
0b"
0c"
0d"
0e"
0f"
0g"
0h"
0i"
0j"
0k"
0l"
0m"
0n"
0o"
0p"
0q"
1r"
0s"
0t"
0u"
0v"
1w"
0x"
1y"
0z"
1{"
0|"
0}"
1~"
0!#
0"#
0##
0$#
1%#
0&#
0'#
0(#
0)#
0*#
0+#
0,#
0-#
0.#
0/#
10#
11#
12#
13#
14#
15#
16#
17#
18#
$end
#10000
1!
1g!
1h!
1&#
1T"
0U"
1'#
0%#
0S"
1V"
#20000
0&
0!
0i!
0g!
0h!
0#"
0j!
#30000
1!
1g!
1h!
0&#
1W"
0T"
1(#
1#!
1U"
1/
0'#
1)#
#40000
0!
0g!
0h!
#50000
1!
1g!
1h!
1*#
1X"
0(#
0#!
1/#
1k"
0/
1+#
0)#
0"!
0'
1l"
#60000
0!
0g!
0h!
#70000
1!
1g!
1h!
1,#
0*#
1m"
1{
10
1.#
1z
1r
#80000
1"
b1000 #
b1001 #
1$
b1000 %
b1001 %
0!
1l!
1o!
1m!
1y!
1n!
1x!
0g!
0h!
1p!
1r!
1z!
1q!
#90000
1!
1g!
1h!
1s!
1}
1v!
1)
#100000
0"
b1 #
b0 #
0!
0l!
0n!
0x!
0g!
0h!
#110000
0$
1!
0o!
1g!
1h!
0p!
0z!
0q!
1v"
1{!
1w!
1'!
1$!
1|
14"
1}"
1.
1*
1-
1z"
1"#
1##
#120000
0!
0g!
0h!
#130000
b1 %
b0 %
1!
0m!
0y!
1g!
1h!
1$#
0{!
0w!
0'!
0$!
1j!
1!#
04"
0}"
0*
0-
0##
1S"
0z"
0!#
0"#
1##
#140000
0!
0g!
0h!
#150000
1!
1g!
1h!
1T"
0U"
1'#
0S"
#160000
0!
0g!
0h!
#170000
1!
1g!
1h!
0T"
1(#
1#!
1U"
1/
0'#
1S"
1)#
#180000
0!
0g!
0h!
#190000
1!
1g!
1h!
1*#
1T"
0(#
0#!
0U"
0/
0+#
0)#
1'#
0S"
#200000
0!
0g!
0h!
#210000
1!
1g!
1h!
0,#
0*#
0T"
1(#
1#!
1#"
0j!
1U"
1/
0.#
1-#
1%#
0r!
1)#
0'#
1y
0z
0r
1q
#220000
0!
0g!
0h!
#230000
1!
1g!
1h!
1*#
1&#
0(#
0s!
0}
0#!
0U"
0v!
0/
0)
1+#
0)#
1'#
0%#
#240000
0!
0g!
0h!
#250000
1!
1g!
1h!
1,#
0*#
0&#
1(#
0v"
0|
1#!
0#"
1j!
1U"
1/
0.
1.#
0-#
1S"
1)#
0'#
0##
0y
1z
1r
0q
#260000
0!
0g!
0h!
#270000
1!
1g!
1h!
1*#
0$#
1T"
0(#
0#!
0j!
0U"
0/
0+#
0)#
0S"
1'#
#280000
0!
0g!
0h!
#290000
1!
1g!
1h!
0,#
0*#
0T"
1(#
1#!
1U"
1/
0.#
1-#
1)#
0'#
1y
0z
0r
1q
#300000
0!
0g!
0h!
#310000
1!
1g!
1h!
1*#
0(#
0#!
0/
1+#
0)#
#320000
0!
0g!
0h!
#330000
1!
1g!
1h!
1,#
0*#
1.#
0-#
0y
1z
1r
0q
#340000
0!
0g!
0h!
#350000
1!
1g!
1h!
#360000
0!
0g!
0h!
#370000
1!
1g!
1h!
#380000
0!
0g!
0h!
#390000
1!
1g!
1h!
#400000
0!
0g!
0h!
#410000
1!
1g!
1h!
#420000
0!
0g!
0h!
#430000
1!
1g!
1h!
#440000
0!
0g!
0h!
#450000
1!
1g!
1h!
#460000
0!
0g!
0h!
#470000
1!
1g!
1h!
#480000
0!
0g!
0h!
#490000
1!
1g!
1h!
#500000
0!
0g!
0h!
#510000
1!
1g!
1h!
#520000
0!
0g!
0h!
#530000
1!
1g!
1h!
#540000
0!
0g!
0h!
#550000
1!
1g!
1h!
#560000
0!
0g!
0h!
#570000
1!
1g!
1h!
#580000
0!
0g!
0h!
#590000
1!
1g!
1h!
#600000
0!
0g!
0h!
#610000
1!
1g!
1h!
#620000
0!
0g!
0h!
#630000
1!
1g!
1h!
#640000
0!
0g!
0h!
#650000
1!
1g!
1h!
#660000
0!
0g!
0h!
#670000
1!
1g!
1h!
#680000
0!
0g!
0h!
#690000
1!
1g!
1h!
#700000
0!
0g!
0h!
#710000
1!
1g!
1h!
#720000
0!
0g!
0h!
#730000
1!
1g!
1h!
#740000
0!
0g!
0h!
#750000
1!
1g!
1h!
#760000
0!
0g!
0h!
#770000
1!
1g!
1h!
#780000
0!
0g!
0h!
#790000
1!
1g!
1h!
#800000
0!
0g!
0h!
#810000
1!
1g!
1h!
#820000
0!
0g!
0h!
#830000
1!
1g!
1h!
#840000
0!
0g!
0h!
#850000
1!
1g!
1h!
#860000
0!
0g!
0h!
#870000
1!
1g!
1h!
#880000
0!
0g!
0h!
#890000
1!
1g!
1h!
#900000
0!
0g!
0h!
#910000
1!
1g!
1h!
#920000
0!
0g!
0h!
#930000
1!
1g!
1h!
#940000
0!
0g!
0h!
#950000
1!
1g!
1h!
#960000
0!
0g!
0h!
#970000
1!
1g!
1h!
#980000
0!
0g!
0h!
#990000
1!
1g!
1h!
