simulation/qsim/hash_game.msim.vcd
$comment
	File created using the following command:
		vcd file hash_game.msim.vcd -direction
$end
$date
	Thu May 20 18:50:03 2021
$end
$version
	ModelSim Version 2020.1
$end
$timescale
	1ps
$end

$scope module jogo_da_velha_vlg_vec_tst $end
$var reg 1 ! CLK $end
$var reg 1 " J1_ATIVO $end
$var reg 4 # J1_SEL [3:0] $end
$var reg 1 $ J2_ATIVO $end
$var reg 4 % J2_SEL [3:0] $end
$var reg 1 & RESET $end
$var wire 1 ' EMPATE $end
$var wire 1 ( LOG_controle1CargaS $end
$var wire 1 ) LOG_controle2CargaS $end
$var wire 1 * LOG_selmem_sel [3] $end
$var wire 1 + LOG_selmem_sel [2] $end
$var wire 1 , LOG_selmem_sel [1] $end
$var wire 1 - LOG_selmem_sel [0] $end
$var wire 1 . LOG_selmemCargaS $end
$var wire 1 / LOG_vsvenceuCargaE $end
$var wire 1 0 PARTIDA_ATIVA $end
$var wire 1 1 QUADRO0 [6] $end
$var wire 1 2 QUADRO0 [5] $end
$var wire 1 3 QUADRO0 [4] $end
$var wire 1 4 QUADRO0 [3] $end
$var wire 1 5 QUADRO0 [2] $end
$var wire 1 6 QUADRO0 [1] $end
$var wire 1 7 QUADRO0 [0] $end
$var wire 1 8 QUADRO1 [6] $end
$var wire 1 9 QUADRO1 [5] $end
$var wire 1 : QUADRO1 [4] $end
$var wire 1 ; QUADRO1 [3] $end
$var wire 1 < QUADRO1 [2] $end
$var wire 1 = QUADRO1 [1] $end
$var wire 1 > QUADRO1 [0] $end
$var wire 1 ? QUADRO2 [6] $end
$var wire 1 @ QUADRO2 [5] $end
$var wire 1 A QUADRO2 [4] $end
$var wire 1 B QUADRO2 [3] $end
$var wire 1 C QUADRO2 [2] $end
$var wire 1 D QUADRO2 [1] $end
$var wire 1 E QUADRO2 [0] $end
$var wire 1 F QUADRO3 [6] $end
$var wire 1 G QUADRO3 [5] $end
$var wire 1 H QUADRO3 [4] $end
$var wire 1 I QUADRO3 [3] $end
$var wire 1 J QUADRO3 [2] $end
$var wire 1 K QUADRO3 [1] $end
$var wire 1 L QUADRO3 [0] $end
$var wire 1 M QUADRO4 [6] $end
$var wire 1 N QUADRO4 [5] $end
$var wire 1 O QUADRO4 [4] $end
$var wire 1 P QUADRO4 [3] $end
$var wire 1 Q QUADRO4 [2] $end
$var wire 1 R QUADRO4 [1] $end
$var wire 1 S QUADRO4 [0] $end
$var wire 1 T QUADRO5 [6] $end
$var wire 1 U QUADRO5 [5] $end
$var wire 1 V QUADRO5 [4] $end
$var wire 1 W QUADRO5 [3] $end
$var wire 1 X QUADRO5 [2] $end
$var wire 1 Y QUADRO5 [1] $end
$var wire 1 Z QUADRO5 [0] $end
$var wire 1 [ QUADRO6 [6] $end
$var wire 1 \ QUADRO6 [5] $end
$var wire 1 ] QUADRO6 [4] $end
$var wire 1 ^ QUADRO6 [3] $end
$var wire 1 _ QUADRO6 [2] $end
$var wire 1 ` QUADRO6 [1] $end
$var wire 1 a QUADRO6 [0] $end
$var wire 1 b QUADRO7 [6] $end
$var wire 1 c QUADRO7 [5] $end
$var wire 1 d QUADRO7 [4] $end
$var wire 1 e QUADRO7 [3] $end
$var wire 1 f QUADRO7 [2] $end
$var wire 1 g QUADRO7 [1] $end
$var wire 1 h QUADRO7 [0] $end
$var wire 1 i QUADRO8 [6] $end
$var wire 1 j QUADRO8 [5] $end
$var wire 1 k QUADRO8 [4] $end
$var wire 1 l QUADRO8 [3] $end
$var wire 1 m QUADRO8 [2] $end
$var wire 1 n QUADRO8 [1] $end
$var wire 1 o QUADRO8 [0] $end
$var wire 1 p VENCEU $end
$var wire 1 q VEZ_DO_J1 $end
$var wire 1 r VEZ_DO_J2 $end

$scope module i1 $end
$var wire 1 s gnd $end
$var wire 1 t vcc $end
$var wire 1 u unknown $end
$var tri1 1 v devclrn $end
$var tri1 1 w devpor $end
$var tri1 1 x devoe $end
$var wire 1 y VEZ_DO_J1~output_o $end
$var wire 1 z VEZ_DO_J2~output_o $end
$var wire 1 { PARTIDA_ATIVA~output_o $end
$var wire 1 | LOG_selmemCargaS~output_o $end
$var wire 1 } LOG_controle2CargaS~output_o $end
$var wire 1 ~ LOG_controle1CargaS~output_o $end
$var wire 1 !! VENCEU~output_o $end
$var wire 1 "! EMPATE~output_o $end
$var wire 1 #! LOG_vsvenceuCargaE~output_o $end
$var wire 1 $! LOG_selmem_sel[3]~output_o $end
$var wire 1 %! LOG_selmem_sel[2]~output_o $end
$var wire 1 &! LOG_selmem_sel[1]~output_o $end
$var wire 1 '! LOG_selmem_sel[0]~output_o $end
$var wire 1 (! QUADRO0[6]~output_o $end
$var wire 1 )! QUADRO0[5]~output_o $end
$var wire 1 *! QUADRO0[4]~output_o $end
$var wire 1 +! QUADRO0[3]~output_o $end
$var wire 1 ,! QUADRO0[2]~output_o $end
$var wire 1 -! QUADRO0[1]~output_o $end
$var wire 1 .! QUADRO0[0]~output_o $end
$var wire 1 /! QUADRO1[6]~output_o $end
$var wire 1 0! QUADRO1[5]~output_o $end
$var wire 1 1! QUADRO1[4]~output_o $end
$var wire 1 2! QUADRO1[3]~output_o $end
$var wire 1 3! QUADRO1[2]~output_o $end
$var wire 1 4! QUADRO1[1]~output_o $end
$var wire 1 5! QUADRO1[0]~output_o $end
$var wire 1 6! QUADRO2[6]~output_o $end
$var wire 1 7! QUADRO2[5]~output_o $end
$var wire 1 8! QUADRO2[4]~output_o $end
$var wire 1 9! QUADRO2[3]~output_o $end
$var wire 1 :! QUADRO2[2]~output_o $end
$var wire 1 ;! QUADRO2[1]~output_o $end
$var wire 1 <! QUADRO2[0]~output_o $end
$var wire 1 =! QUADRO3[6]~output_o $end
$var wire 1 >! QUADRO3[5]~output_o $end
$var wire 1 ?! QUADRO3[4]~output_o $end
$var wire 1 @! QUADRO3[3]~output_o $end
$var wire 1 A! QUADRO3[2]~output_o $end
$var wire 1 B! QUADRO3[1]~output_o $end
$var wire 1 C! QUADRO3[0]~output_o $end
$var wire 1 D! QUADRO4[6]~output_o $end
$var wire 1 E! QUADRO4[5]~output_o $end
$var wire 1 F! QUADRO4[4]~output_o $end
$var wire 1 G! QUADRO4[3]~output_o $end
$var wire 1 H! QUADRO4[2]~output_o $end
$var wire 1 I! QUADRO4[1]~output_o $end
$var wire 1 J! QUADRO4[0]~output_o $end
$var wire 1 K! QUADRO5[6]~output_o $end
$var wire 1 L! QUADRO5[5]~output_o $end
$var wire 1 M! QUADRO5[4]~output_o $end
$var wire 1 N! QUADRO5[3]~output_o $end
$var wire 1 O! QUADRO5[2]~output_o $end
$var wire 1 P! QUADRO5[1]~output_o $end
$var wire 1 Q! QUADRO5[0]~output_o $end
$var wire 1 R! QUADRO6[6]~output_o $end
$var wire 1 S! QUADRO6[5]~output_o $end
$var wire 1 T! QUADRO6[4]~output_o $end
$var wire 1 U! QUADRO6[3]~output_o $end
$var wire 1 V! QUADRO6[2]~output_o $end
$var wire 1 W! QUADRO6[1]~output_o $end
$var wire 1 X! QUADRO6[0]~output_o $end
$var wire 1 Y! QUADRO7[6]~output_o $end
$var wire 1 Z! QUADRO7[5]~output_o $end
$var wire 1 [! QUADRO7[4]~output_o $end
$var wire 1 \! QUADRO7[3]~output_o $end
$var wire 1 ]! QUADRO7[2]~output_o $end
$var wire 1 ^! QUADRO7[1]~output_o $end
$var wire 1 _! QUADRO7[0]~output_o $end
$var wire 1 `! QUADRO8[6]~output_o $end
$var wire 1 a! QUADRO8[5]~output_o $end
$var wire 1 b! QUADRO8[4]~output_o $end
$var wire 1 c! QUADRO8[3]~output_o $end
$var wire 1 d! QUADRO8[2]~output_o $end
$var wire 1 e! QUADRO8[1]~output_o $end
$var wire 1 f! QUADRO8[0]~output_o $end
$var wire 1 g! CLK~input_o $end
$var wire 1 h! CLK~inputclkctrl_outclk $end
$var wire 1 i! RESET~input_o $end
$var wire 1 j! J2_SEL[2]~input_o $end
$var wire 1 k! J2_MEMO|inst2|inst10~0_combout $end
$var wire 1 l! J1_SEL[1]~input_o $end
$var wire 1 m! inst|inst10~feeder_combout $end
$var wire 1 n! J2_SEL[3]~input_o $end
$var wire 1 o! inst1|inst12~feeder_combout $end
$var wire 1 p! inst1|inst12~q $end
$var wire 1 q! J1_SEL[3]~input_o $end
$var wire 1 r! inst|inst12~feeder_combout $end
$var wire 1 s! inst|inst12~q $end
$var wire 1 t! inst6|inst3|inst7|inst3~0_combout $end
$var wire 1 u! J1_ATIVO~input_o $end
$var wire 1 v! inst|inst1|inst3~0_combout $end
$var wire 1 w! inst|inst6~q $end
$var wire 1 x! J2_ATIVO~input_o $end
$var wire 1 y! inst35436~combout $end
$var wire 1 z! inst1|inst1|inst3~0_combout $end
$var wire 1 {! inst1|inst6~q $end
$var wire 1 |! OR2_SELMEM~combout $end
$var wire 1 }! inst6|inst3|inst10~q $end
$var wire 1 ~! J1_SEL[0]~input_o $end
$var wire 1 !" inst|inst8~q $end
$var wire 1 "" J2_SEL[0]~input_o $end
$var wire 1 #" inst1|inst8~feeder_combout $end
$var wire 1 $" inst1|inst8~q $end
$var wire 1 %" inst6|inst|inst7|inst3~0_combout $end
$var wire 1 &" inst6|inst|inst10~q $end
$var wire 1 '" J1_MEMO|inst|inst10~combout $end
$var wire 1 (" J1_MEMO|inst2|inst10~0_combout $end
$var wire 1 )" J1_MEMO|inst10|inst10~0_combout $end
$var wire 1 *" J1_MEMO|inst10|inst10~q $end
$var wire 1 +" J1_MEMO|inst|inst13~0_combout $end
$var wire 1 ," J1_MEMO|inst2|inst10~1_combout $end
$var wire 1 -" J1_MEMO|inst2|inst10~q $end
$var wire 1 ." J1_MEMO|inst|inst14~combout $end
$var wire 1 /" J1_MEMO|inst3|inst10~0_combout $end
$var wire 1 0" J1_MEMO|inst3|inst10~q $end
$var wire 1 1" inst2464|inst~10_combout $end
$var wire 1 2" J2_MEMO|inst3|inst10~0_combout $end
$var wire 1 3" J2_MEMO|inst3|inst10~q $end
$var wire 1 4" J2_MEMO|inst9|inst10~0_combout $end
$var wire 1 5" J2_MEMO|inst9|inst10~q $end
$var wire 1 6" J2_MEMO|inst10|inst10~0_combout $end
$var wire 1 7" J2_MEMO|inst10|inst10~q $end
$var wire 1 8" J2_MEMO|inst2|inst10~1_combout $end
$var wire 1 9" J2_MEMO|inst2|inst10~q $end
$var wire 1 :" inst2464|inst~11_combout $end
$var wire 1 ;" inst2464|inst~12_combout $end
$var wire 1 <" J1_MEMO|inst|inst28~combout $end
$var wire 1 =" J2_MEMO|inst6|inst10~0_combout $end
$var wire 1 >" J2_MEMO|inst6|inst10~q $end
$var wire 1 ?" J1_MEMO|inst6|inst10~0_combout $end
$var wire 1 @" J1_MEMO|inst6|inst10~q $end
$var wire 1 A" inst13|inst99|inst6|inst3~0_combout $end
$var wire 1 B" J1_MEMO|inst|inst27~combout $end
$var wire 1 C" J1_MEMO|inst4|inst10~0_combout $end
$var wire 1 D" J1_MEMO|inst4|inst10~q $end
$var wire 1 E" J1_MEMO|inst|inst18~combout $end
$var wire 1 F" J1_MEMO|inst5|inst10~0_combout $end
$var wire 1 G" J1_MEMO|inst5|inst10~q $end
$var wire 1 H" J1_MEMO|inst|inst7~combout $end
$var wire 1 I" J1_MEMO|inst7|inst10~0_combout $end
$var wire 1 J" J1_MEMO|inst7|inst10~q $end
$var wire 1 K" J1_MEMO|inst8|inst10~0_combout $end
$var wire 1 L" J1_MEMO|inst8|inst10~q $end
$var wire 1 M" inst2464|inst~7_combout $end
$var wire 1 N" J2_MEMO|inst5|inst10~0_combout $end
$var wire 1 O" J2_MEMO|inst5|inst10~q $end
$var wire 1 P" J2_MEMO|inst4|inst10~0_combout $end
$var wire 1 Q" J2_MEMO|inst4|inst10~q $end
$var wire 1 R" J2_MEMO|inst7|inst10~0_combout $end
$var wire 1 S" J2_MEMO|inst7|inst10~q $end
$var wire 1 T" inst2464|inst~8_combout $end
$var wire 1 U" inst2464|inst~9_combout $end
$var wire 1 V" inst13|inst99|inst|inst3~0_combout $end
$var wire 1 W" inst13|inst99|inst74|inst3~0_combout $end
$var wire 1 X" inst2464|inst~4_combout $end
$var wire 1 Y" inst2464|inst~3_combout $end
$var wire 1 Z" inst2464|inst~5_combout $end
$var wire 1 [" inst2464|inst~1_combout $end
$var wire 1 \" inst2464|inst~0_combout $end
$var wire 1 ]" inst2464|inst~2_combout $end
$var wire 1 ^" inst2464|inst~6_combout $end
$var wire 1 _" inst2464|inst~13_combout $end
$var wire 1 `" inst2464|inst13~q $end
$var wire 1 a" inst|inst~combout $end
$var wire 1 b" inst|inst10~q $end
$var wire 1 c" J2_SEL[1]~input_o $end
$var wire 1 d" inst1|inst10~feeder_combout $end
$var wire 1 e" inst1|inst10~q $end
$var wire 1 f" inst6|inst1|inst7|inst3~0_combout $end
$var wire 1 g" inst6|inst1|inst10~q $end
$var wire 1 h" J1_MEMO|inst|inst8~combout $end
$var wire 1 i" J2_MEMO|inst8|inst10~0_combout $end
$var wire 1 j" J2_MEMO|inst8|inst10~q $end
$var wire 1 k" inst17|inst4n1~0_combout $end
$var wire 1 l" J2_MEMO|inst011~0_combout $end
$var wire 1 m" J2_MEMO|inst011~q $end
$var wire 1 n" inst13|inst17~0_combout $end
$var wire 1 o" inst13|inst15~0_combout $end
$var wire 1 p" inst13|inst49~combout $end
$var wire 1 q" inst13|inst15~1_combout $end
$var wire 1 r" inst13|inst15~2_combout $end
$var wire 1 s" inst13|inst15~3_combout $end
$var wire 1 t" inst13|inst17~1_combout $end
$var wire 1 u" inst13|inst17~q $end
$var wire 1 v" inst2464|inst14~feeder_combout $end
$var wire 1 w" inst2464|inst14~q $end
$var wire 1 x" inst1|inst~combout $end
$var wire 1 y" inst1|inst11~q $end
$var wire 1 z" J1_SEL[2]~input_o $end
$var wire 1 {" inst|inst11~feeder_combout $end
$var wire 1 |" inst|inst11~q $end
$var wire 1 }" inst6|inst2|inst7|inst3~0_combout $end
$var wire 1 ~" inst6|inst2|inst10~q $end
$var wire 1 !# J1_MEMO|inst|inst25~combout $end
$var wire 1 "# J1_MEMO|inst9|inst10~0_combout $end
$var wire 1 ## J1_MEMO|inst9|inst10~q $end
$var wire 1 $# inst17|inst4n2~0_combout $end
$var wire 1 %# inst6|inst12~feeder_combout $end
$var wire 1 &# inst6|inst12~q $end
$var wire 1 '# inst17|inst2424~6_combout $end
$var wire 1 (# inst17|inst2424~5_combout $end
$var wire 1 )# inst17|inst2424~7_combout $end
$var wire 1 *# inst17|inst4n3~0_combout $end
$var wire 1 +# inst17|inst2424~8_combout $end
$var wire 1 ,# inst17|inst2424~3_combout $end
$var wire 1 -# inst17|inst2424~2_combout $end
$var wire 1 .# inst17|inst2424~4_combout $end
$var wire 1 /# inst17|inst2424~0_combout $end
$var wire 1 0# inst17|inst2424~1_combout $end
$var wire 1 1# inst17|inst2424~9_combout $end
$var wire 1 2# inst17|instTFF~0_combout $end
$var wire 1 3# inst17|instTFF~q $end
$var wire 1 4# J1_MEMO|inst011~0_combout $end
$var wire 1 5# J1_MEMO|inst011~q $end
$var wire 1 6# inst13|inst10~0_combout $end
$var wire 1 7# inst13|inst10~q $end
$var wire 1 8# inst2464|inst2~0_combout $end
$var wire 1 9# inst2464|inst2~q $end
$var wire 1 :# inst2424~0_combout $end
$var wire 1 ;# inst2424~q $end
$var wire 1 <# inst21~combout $end
$var wire 1 =# 015158~combout $end
$var wire 1 ># inst2464|inst15~combout $end
$var wire 1 ?# VISORES|VISOR0|inst|e_and~0_combout $end
$var wire 1 @# VISORES|VISOR1|inst|e_and~0_combout $end
$var wire 1 A# VISORES|VISOR2|inst|e_and~0_combout $end
$var wire 1 B# VISORES|VISOR3|inst|e_and~0_combout $end
$var wire 1 C# VISORES|VISOR4|inst|e_and~0_combout $end
$var wire 1 D# VISORES|VISOR5|inst|e_and~0_combout $end
$var wire 1 E# VISORES|VISOR6|inst|e_and~0_combout $end
$var wire 1 F# VISORES|VISOR7|inst|e_and~0_combout $end
$var wire 1 G# VISORES|VISOR8|inst|e_and~0_combout $end
$upscope $end
$upscope $end
$enddefinitions $end
#0
$dumpvars
0!
0"
b0 #
0$
b0 %
1&
1'
0(
0)
0-
0,
0+
0*
0.
0/
00
17
16
15
14
13
12
11
1>
1=
1<
1;
1:
19
18
1E
1D
1C
1B
1A
1@
1?
1L
1K
1J
1I
1H
1G
1F
1S
1R
1Q
1P
1O
1N
1M
1Z
1Y
1X
1W
1V
1U
1T
1a
1`
1_
1^
1]
1\
1[
1h
1g
1f
1e
1d
1c
1b
1o
1n
1m
1l
1k
1j
1i
0p
0q
0r
0s
1t
xu
1v
1w
1x
0y
0z
0{
0|
0}
0~
0!!
1"!
0#!
0$!
0%!
0&!
0'!
1(!
1)!
1*!
1+!
1,!
1-!
1.!
1/!
10!
11!
12!
13!
14!
15!
16!
17!
18!
19!
1:!
1;!
1<!
1=!
1>!
1?!
1@!
1A!
1B!
1C!
1D!
1E!
1F!
1G!
1H!
1I!
1J!
1K!
1L!
1M!
1N!
1O!
1P!
1Q!
1R!
1S!
1T!
1U!
1V!
1W!
1X!
1Y!
1Z!
1[!
1\!
1]!
1^!
1_!
1`!
1a!
1b!
1c!
1d!
1e!
1f!
0g!
0h!
1i!
0j!
1k!
0l!
0m!
0n!
0o!
0p!
0q!
0r!
0s!
0t!
0u!
0v!
0w!
0x!
0y!
0z!
0{!
0|!
0}!
0~!
0!"
0""
0#"
0$"
0%"
0&"
0'"
1("
0)"
0*"
1+"
0,"
0-"
1."
0/"
00"
01"
02"
03"
04"
05"
06"
07"
08"
09"
0:"
0;"
1<"
0="
0>"
0?"
0@"
0A"
1B"
0C"
0D"
1E"
0F"
0G"
0H"
0I"
0J"
0K"
0L"
0M"
0N"
0O"
0P"
0Q"
0R"
0S"
0T"
0U"
0V"
0W"
0X"
0Y"
0Z"
0["
0\"
0]"
0^"
0_"
0`"
0a"
0b"
0c"
0d"
0e"
0f"
0g"
0h"
0i"
0j"
1k"
1l"
0m"
1n"
0o"
0p"
0q"
0r"
0s"
0t"
0u"
0v"
0w"
0x"
0y"
0z"
0{"
0|"
0}"
0~"
1!#
0"#
0##
0$#
0%#
0&#
1'#
0(#
0)#
1*#
0+#
1,#
0-#
0.#
1/#
00#
01#
02#
03#
14#
05#
06#
07#
08#
09#
0:#
0;#
1<#
1=#
0>#
1?#
1@#
1A#
1B#
1C#
1D#
1E#
1F#
1G#
$end
#10000
1!
1g!
1h!
15#
1m"
0n"
16#
04#
0l"
1t"
#20000
0&
0!
0i!
0g!
0h!
0("
0k!
#30000
1!
1g!
1h!
05#
1u"
0m"
17#
1#!
1n"
1/
06#
1v"
18#
#40000
0!
0g!
0h!
#50000
1!
1g!
1h!
19#
1w"
07#
0#!
1>#
0=#
0<#
0/
1:#
08#
1y
1{
0"!
0'
10
1q
#60000
0!
0g!
0h!
#70000
1!
1g!
1h!
1;#
09#
1<#
1y!
1z
0y
0q
1r
#80000
1$
b1000 %
b1001 %
0!
1x!
1""
1n!
0g!
0h!
1x"
1z!
1#"
1o!
#90000
1!
1g!
1h!
1$"
1p!
1{!
1}
1%"
1t!
1|!
1)
1%#
#100000
0$
0!
0x!
0g!
0h!
0x"
#110000
1!
1g!
1h!
1&#
1&"
1}!
1$!
1'!
1|
1(#
1'"
1.
1-
1*
1+#
11#
12#
#120000
0!
0g!
0h!
#130000
b1 %
b0 %
1!
0""
0n!
1g!
1h!
0#"
0o!
13#
1k!
02#
1l"
16"
#140000
0!
0g!
0h!
#150000
1!
1g!
1h!
03#
1m"
17"
0k!
0n"
0*#
1p"
1W"
12#
0l"
16#
0G#
0b!
0e!
0+#
0n
0k
01#
02#
#160000
0!
0g!
0h!
#170000
1!
1g!
1h!
0m"
17#
1#!
1n"
1/
06#
18#
#180000
0!
0g!
0h!
#190000
1!
1g!
1h!
19#
07#
0#!
0/
0:#
08#
#200000
0!
0g!
0h!
#210000
1"
b1000 #
1!
1u!
1q!
1g!
1h!
1r!
0;#
09#
0<#
1a"
0W"
0%"
0t!
0y!
0z
1y
1q
0r
1v!
0z!
#220000
0!
0g!
0h!
#230000
0"
b0 #
1!
0u!
0q!
1g!
1h!
0a"
0v!
0r!
1s!
0&"
0}!
0{!
1w!
1~
0}
0$!
0'!
1t!
0(#
0'"
0-
0*
0)
1(
1v!
#240000
0!
0g!
0h!
#250000
1!
1g!
1h!
1}!
1$!
0!#
1*
1$#
12#
#260000
0!
0g!
0h!
#270000
1!
1g!
1h!
13#
1("
14#
02#
1"#
#280000
0!
0g!
0h!
#290000
1!
1g!
1h!
15#
03#
1##
0Y!
0n"
0("
0$#
0b
16#
04#
12#
02#
#300000
0!
0g!
0h!
#310000
1!
1g!
1h!
05#
17#
1#!
1n"
1/
06#
18#
#320000
0!
0g!
0h!
#330000
1!
1g!
1h!
19#
07#
0#!
0/
1:#
08#
#340000
0!
0g!
0h!
#350000
1!
1g!
1h!
1;#
09#
1<#
1W"
1%"
1y!
1z
0y
0q
1r
0v!
#360000
b100 %
1$
b101 %
0!
1""
1j!
1x!
0g!
0h!
1x"
1#"
1z!
#370000
1!
1g!
1h!
1y"
0p!
1&"
1{!
0w!
0~
1}
1'!
1}"
0t!
1(#
1!#
1'"
1-
1)
0(
#380000
b1 %
0$
b0 %
0!
0""
0j!
0x!
0g!
0h!
0x"
0#"
#390000
1!
1g!
1h!
1~"
0}!
0$!
1%!
1-#
1)#
0<"
0'"
1+
0*
11#
12#
#400000
0!
0g!
0h!
#410000
1!
1g!
1h!
13#
1k!
02#
1l"
1="
#420000
0!
0g!
0h!
#430000
1!
1g!
1h!
03#
1m"
1>"
0k!
0n"
0'#
1A"
12#
0l"
16#
0C#
0F!
0I!
0)#
0R
0O
01#
02#
#440000
0!
0g!
0h!
#450000
1!
1g!
1h!
0m"
17#
1#!
1n"
1/
06#
18#
#460000
0!
0g!
0h!
#470000
1!
1g!
1h!
19#
07#
0#!
0/
0:#
08#
#480000
b10 #
1"
0!
1l!
1u!
0g!
0h!
1m!
#490000
1!
1g!
1h!
0;#
09#
0<#
0}"
1a"
0W"
0A"
0%"
1t!
0y!
0z
1y
1q
0r
1v!
0z!
#500000
0!
0g!
0h!
#510000
b0 #
0"
1!
0l!
0u!
1g!
1h!
0a"
0m!
0v!
1b"
0s!
0~"
0&"
1}!
0{!
1w!
1~
0}
1$!
0'!
0%!
1f"
0t!
0-#
0!#
1<"
0(#
1'#
0+
0-
1*
0)
1(
1v!
#520000
0!
0g!
0h!
#530000
1!
1g!
1h!
1g"
0}!
0$!
1&!
1-#
1(#
1!#
0."
1,
0*
1.#
11#
12#
#540000
0!
0g!
0h!
#550000
1!
1g!
1h!
13#
1("
14#
02#
1/"
#560000
0!
0g!
0h!
#570000
1!
1g!
1h!
15#
03#
10"
0/!
0n"
0("
0-#
11"
08
16#
04#
12#
0.#
1;"
01#
02#
#580000
0!
0g!
0h!
#590000
1!
1g!
1h!
05#
17#
1#!
1n"
1/
06#
18#
#600000
1$
b1 %
0!
1x!
1""
0g!
0h!
1#"
#610000
1!
1g!
1h!
19#
07#
0#!
0/
1:#
08#
#620000
0!
0g!
0h!
#630000
1!
1g!
1h!
1;#
09#
1<#
1}"
1x"
0f"
1W"
1A"
0;"
1%"
1y!
1z
0y
0q
1r
0v!
1z!
#640000
0!
0g!
0h!
#650000
0$
b0 %
1!
0x!
0""
1g!
1h!
0x"
0z!
0#"
0y"
1~"
0g"
1&"
1{!
0w!
0~
1}
1'!
0&!
1%!
0}"
1-#
1)#
0<"
1."
0'#
1+
0,
1-
1)
0(
1z!
11#
0)#
01#
12#
02#
#660000
0!
0g!
0h!
#670000
1!
1g!
1h!
0~"
0%!
0-#
1<"
0+"
0+
10#
11#
12#
#680000
0!
0g!
0h!
#690000
1!
1g!
1h!
13#
1k!
02#
1l"
18"
#700000
0!
0g!
0h!
#710000
1!
1g!
1h!
03#
1m"
19"
0k!
0n"
00#
1o"
1V"
1:"
12#
0l"
16#
0?#
0*!
0-!
01#
1;"
06
03
02#
1_"
#720000
0!
0g!
0h!
#730000
1!
1g!
1h!
0m"
17#
1#!
1n"
1/
06#
18#
#740000
0!
0g!
0h!
#750000
1!
1g!
1h!
19#
07#
1`"
1!!
0#!
1=#
0/
1p
0:#
08#
0y!
0z
0{
00
0r
0z!
#760000
0!
0g!
0h!
#770000
1!
1g!
1h!
0;#
09#
0{!
0}
1f"
0W"
0V"
0A"
0%"
0|!
0)
0_"
0%#
#780000
0!
0g!
0h!
#790000
1!
1g!
1h!
0&#
0|
0.
#800000
0!
0g!
0h!
#810000
1!
1g!
1h!
#820000
0!
0g!
0h!
#830000
1!
1g!
1h!
#840000
0!
0g!
0h!
#850000
1!
1g!
1h!
#860000
0!
0g!
0h!
#870000
1!
1g!
1h!
#880000
0!
0g!
0h!
#890000
1!
1g!
1h!
#900000
0!
0g!
0h!
#910000
1!
1g!
1h!
#920000
0!
0g!
0h!
#930000
1!
1g!
1h!
#940000
0!
0g!
0h!
#950000
1!
1g!
1h!
#960000
0!
0g!
0h!
#970000
1!
1g!
1h!
#980000
0!
0g!
0h!
#990000
1!
1g!
1h!
