simulation/qsim/hash_game.msim.vcd
$comment
	File created using the following command:
		vcd file hash_game.msim.vcd -direction
$end
$date
	Wed May 19 00:22:21 2021
$end
$version
	ModelSim Version 2020.1
$end
$timescale
	1ps
$end

$scope module hash_game_vlg_vec_tst $end
$var reg 1 ! APERTOU_J1 $end
$var reg 1 " APERTOU_J2 $end
$var reg 1 # CLK $end
$var reg 1 $ RESET $end
$var reg 4 % SEL_J1 [3:0] $end
$var reg 4 & SEL_J2 [3:0] $end
$var wire 1 ' EMPATE $end
$var wire 1 ( QUADRO0 [6] $end
$var wire 1 ) QUADRO0 [5] $end
$var wire 1 * QUADRO0 [4] $end
$var wire 1 + QUADRO0 [3] $end
$var wire 1 , QUADRO0 [2] $end
$var wire 1 - QUADRO0 [1] $end
$var wire 1 . QUADRO0 [0] $end
$var wire 1 / QUADRO1 [6] $end
$var wire 1 0 QUADRO1 [5] $end
$var wire 1 1 QUADRO1 [4] $end
$var wire 1 2 QUADRO1 [3] $end
$var wire 1 3 QUADRO1 [2] $end
$var wire 1 4 QUADRO1 [1] $end
$var wire 1 5 QUADRO1 [0] $end
$var wire 1 6 QUADRO2 [6] $end
$var wire 1 7 QUADRO2 [5] $end
$var wire 1 8 QUADRO2 [4] $end
$var wire 1 9 QUADRO2 [3] $end
$var wire 1 : QUADRO2 [2] $end
$var wire 1 ; QUADRO2 [1] $end
$var wire 1 < QUADRO2 [0] $end
$var wire 1 = QUADRO3 [6] $end
$var wire 1 > QUADRO3 [5] $end
$var wire 1 ? QUADRO3 [4] $end
$var wire 1 @ QUADRO3 [3] $end
$var wire 1 A QUADRO3 [2] $end
$var wire 1 B QUADRO3 [1] $end
$var wire 1 C QUADRO3 [0] $end
$var wire 1 D QUADRO4 [6] $end
$var wire 1 E QUADRO4 [5] $end
$var wire 1 F QUADRO4 [4] $end
$var wire 1 G QUADRO4 [3] $end
$var wire 1 H QUADRO4 [2] $end
$var wire 1 I QUADRO4 [1] $end
$var wire 1 J QUADRO4 [0] $end
$var wire 1 K QUADRO5 [6] $end
$var wire 1 L QUADRO5 [5] $end
$var wire 1 M QUADRO5 [4] $end
$var wire 1 N QUADRO5 [3] $end
$var wire 1 O QUADRO5 [2] $end
$var wire 1 P QUADRO5 [1] $end
$var wire 1 Q QUADRO5 [0] $end
$var wire 1 R QUADRO6 [6] $end
$var wire 1 S QUADRO6 [5] $end
$var wire 1 T QUADRO6 [4] $end
$var wire 1 U QUADRO6 [3] $end
$var wire 1 V QUADRO6 [2] $end
$var wire 1 W QUADRO6 [1] $end
$var wire 1 X QUADRO6 [0] $end
$var wire 1 Y QUADRO7 [6] $end
$var wire 1 Z QUADRO7 [5] $end
$var wire 1 [ QUADRO7 [4] $end
$var wire 1 \ QUADRO7 [3] $end
$var wire 1 ] QUADRO7 [2] $end
$var wire 1 ^ QUADRO7 [1] $end
$var wire 1 _ QUADRO7 [0] $end
$var wire 1 ` QUADRO8 [6] $end
$var wire 1 a QUADRO8 [5] $end
$var wire 1 b QUADRO8 [4] $end
$var wire 1 c QUADRO8 [3] $end
$var wire 1 d QUADRO8 [2] $end
$var wire 1 e QUADRO8 [1] $end
$var wire 1 f QUADRO8 [0] $end
$var wire 1 g QUADRO_SEL [8] $end
$var wire 1 h QUADRO_SEL [7] $end
$var wire 1 i QUADRO_SEL [6] $end
$var wire 1 j QUADRO_SEL [5] $end
$var wire 1 k QUADRO_SEL [4] $end
$var wire 1 l QUADRO_SEL [3] $end
$var wire 1 m QUADRO_SEL [2] $end
$var wire 1 n QUADRO_SEL [1] $end
$var wire 1 o QUADRO_SEL [0] $end
$var wire 1 p VENCEU $end
$var wire 1 q VEZ_DO_JOGADOR $end

$scope module i1 $end
$var wire 1 r gnd $end
$var wire 1 s vcc $end
$var wire 1 t unknown $end
$var tri1 1 u devclrn $end
$var tri1 1 v devpor $end
$var tri1 1 w devoe $end
$var wire 1 x VENCEU~output_o $end
$var wire 1 y EMPATE~output_o $end
$var wire 1 z VEZ_DO_JOGADOR~output_o $end
$var wire 1 { QUADRO0[6]~output_o $end
$var wire 1 | QUADRO0[5]~output_o $end
$var wire 1 } QUADRO0[4]~output_o $end
$var wire 1 ~ QUADRO0[3]~output_o $end
$var wire 1 !! QUADRO0[2]~output_o $end
$var wire 1 "! QUADRO0[1]~output_o $end
$var wire 1 #! QUADRO0[0]~output_o $end
$var wire 1 $! QUADRO1[6]~output_o $end
$var wire 1 %! QUADRO1[5]~output_o $end
$var wire 1 &! QUADRO1[4]~output_o $end
$var wire 1 '! QUADRO1[3]~output_o $end
$var wire 1 (! QUADRO1[2]~output_o $end
$var wire 1 )! QUADRO1[1]~output_o $end
$var wire 1 *! QUADRO1[0]~output_o $end
$var wire 1 +! QUADRO2[6]~output_o $end
$var wire 1 ,! QUADRO2[5]~output_o $end
$var wire 1 -! QUADRO2[4]~output_o $end
$var wire 1 .! QUADRO2[3]~output_o $end
$var wire 1 /! QUADRO2[2]~output_o $end
$var wire 1 0! QUADRO2[1]~output_o $end
$var wire 1 1! QUADRO2[0]~output_o $end
$var wire 1 2! QUADRO3[6]~output_o $end
$var wire 1 3! QUADRO3[5]~output_o $end
$var wire 1 4! QUADRO3[4]~output_o $end
$var wire 1 5! QUADRO3[3]~output_o $end
$var wire 1 6! QUADRO3[2]~output_o $end
$var wire 1 7! QUADRO3[1]~output_o $end
$var wire 1 8! QUADRO3[0]~output_o $end
$var wire 1 9! QUADRO4[6]~output_o $end
$var wire 1 :! QUADRO4[5]~output_o $end
$var wire 1 ;! QUADRO4[4]~output_o $end
$var wire 1 <! QUADRO4[3]~output_o $end
$var wire 1 =! QUADRO4[2]~output_o $end
$var wire 1 >! QUADRO4[1]~output_o $end
$var wire 1 ?! QUADRO4[0]~output_o $end
$var wire 1 @! QUADRO5[6]~output_o $end
$var wire 1 A! QUADRO5[5]~output_o $end
$var wire 1 B! QUADRO5[4]~output_o $end
$var wire 1 C! QUADRO5[3]~output_o $end
$var wire 1 D! QUADRO5[2]~output_o $end
$var wire 1 E! QUADRO5[1]~output_o $end
$var wire 1 F! QUADRO5[0]~output_o $end
$var wire 1 G! QUADRO6[6]~output_o $end
$var wire 1 H! QUADRO6[5]~output_o $end
$var wire 1 I! QUADRO6[4]~output_o $end
$var wire 1 J! QUADRO6[3]~output_o $end
$var wire 1 K! QUADRO6[2]~output_o $end
$var wire 1 L! QUADRO6[1]~output_o $end
$var wire 1 M! QUADRO6[0]~output_o $end
$var wire 1 N! QUADRO7[6]~output_o $end
$var wire 1 O! QUADRO7[5]~output_o $end
$var wire 1 P! QUADRO7[4]~output_o $end
$var wire 1 Q! QUADRO7[3]~output_o $end
$var wire 1 R! QUADRO7[2]~output_o $end
$var wire 1 S! QUADRO7[1]~output_o $end
$var wire 1 T! QUADRO7[0]~output_o $end
$var wire 1 U! QUADRO8[6]~output_o $end
$var wire 1 V! QUADRO8[5]~output_o $end
$var wire 1 W! QUADRO8[4]~output_o $end
$var wire 1 X! QUADRO8[3]~output_o $end
$var wire 1 Y! QUADRO8[2]~output_o $end
$var wire 1 Z! QUADRO8[1]~output_o $end
$var wire 1 [! QUADRO8[0]~output_o $end
$var wire 1 \! QUADRO_SEL[8]~output_o $end
$var wire 1 ]! QUADRO_SEL[7]~output_o $end
$var wire 1 ^! QUADRO_SEL[6]~output_o $end
$var wire 1 _! QUADRO_SEL[5]~output_o $end
$var wire 1 `! QUADRO_SEL[4]~output_o $end
$var wire 1 a! QUADRO_SEL[3]~output_o $end
$var wire 1 b! QUADRO_SEL[2]~output_o $end
$var wire 1 c! QUADRO_SEL[1]~output_o $end
$var wire 1 d! QUADRO_SEL[0]~output_o $end
$var wire 1 e! CLK~input_o $end
$var wire 1 f! CLK~inputclkctrl_outclk $end
$var wire 1 g! RESET~input_o $end
$var wire 1 h! APERTOU_J2~input_o $end
$var wire 1 i! APERTOU_J1~input_o $end
$var wire 1 j! inst8~8_combout $end
$var wire 1 k! inst8~q $end
$var wire 1 l! CONTROLE_1|inst~0_combout $end
$var wire 1 m! SEL_J1[3]~input_o $end
$var wire 1 n! SEL_J1[0]~input_o $end
$var wire 1 o! MEMO_J1|inst|inst8~0_combout $end
$var wire 1 p! SEL_J1[1]~input_o $end
$var wire 1 q! SEL_J1[2]~input_o $end
$var wire 1 r! MEMO_J1|inst|inst18~0_combout $end
$var wire 1 s! MEMO_J1|inst6|inst10~0_combout $end
$var wire 1 t! MEMO_J1|inst6|inst10~q $end
$var wire 1 u! CONTROLE_2|inst~0_combout $end
$var wire 1 v! SEL_J2[0]~input_o $end
$var wire 1 w! SEL_J2[3]~input_o $end
$var wire 1 x! MEMO_J2|inst|inst8~0_combout $end
$var wire 1 y! SEL_J2[2]~input_o $end
$var wire 1 z! SEL_J2[1]~input_o $end
$var wire 1 {! MEMO_J2|inst|inst18~0_combout $end
$var wire 1 |! MEMO_J2|inst6|inst10~0_combout $end
$var wire 1 }! MEMO_J2|inst6|inst10~q $end
$var wire 1 ~! inst|inst99|inst6|inst3~0_combout $end
$var wire 1 !" MEMO_J1|inst|inst10~0_combout $end
$var wire 1 "" MEMO_J1|inst2|inst10~0_combout $end
$var wire 1 #" MEMO_J1|inst2|inst10~q $end
$var wire 1 $" MEMO_J2|inst|inst10~0_combout $end
$var wire 1 %" MEMO_J2|inst2|inst10~0_combout $end
$var wire 1 &" MEMO_J2|inst2|inst10~q $end
$var wire 1 '" inst|inst99|inst|inst3~0_combout $end
$var wire 1 (" MEMO_J2|inst|inst25~0_combout $end
$var wire 1 )" MEMO_J2|inst9|inst10~0_combout $end
$var wire 1 *" MEMO_J2|inst9|inst10~q $end
$var wire 1 +" MEMO_J1|inst|inst25~0_combout $end
$var wire 1 ," MEMO_J1|inst9|inst10~0_combout $end
$var wire 1 -" MEMO_J1|inst9|inst10~q $end
$var wire 1 ." inst|inst99|inst7|inst3~0_combout $end
$var wire 1 /" MEMO_J1|inst|inst10~1_combout $end
$var wire 1 0" MEMO_J1|inst10|inst10~0_combout $end
$var wire 1 1" MEMO_J1|inst10|inst10~q $end
$var wire 1 2" MEMO_J2|inst8|inst10~0_combout $end
$var wire 1 3" MEMO_J2|inst8|inst10~1_combout $end
$var wire 1 4" MEMO_J2|inst8|inst10~q $end
$var wire 1 5" MEMO_J1|inst8|inst10~0_combout $end
$var wire 1 6" MEMO_J1|inst8|inst10~1_combout $end
$var wire 1 7" MEMO_J1|inst8|inst10~q $end
$var wire 1 8" inst|inst99|inst5|inst3~0_combout $end
$var wire 1 9" MEMO_J2|inst|inst14~0_combout $end
$var wire 1 :" MEMO_J2|inst4|inst10~0_combout $end
$var wire 1 ;" MEMO_J2|inst4|inst10~q $end
$var wire 1 <" MEMO_J1|inst|inst14~0_combout $end
$var wire 1 =" MEMO_J1|inst4|inst10~0_combout $end
$var wire 1 >" MEMO_J1|inst4|inst10~q $end
$var wire 1 ?" inst|inst99|inst2|inst3~0_combout $end
$var wire 1 @" MEMO_J2|inst|inst7~0_combout $end
$var wire 1 A" MEMO_J2|inst5|inst10~0_combout $end
$var wire 1 B" MEMO_J2|inst5|inst10~q $end
$var wire 1 C" MEMO_J1|inst|inst7~0_combout $end
$var wire 1 D" MEMO_J1|inst5|inst10~0_combout $end
$var wire 1 E" MEMO_J1|inst5|inst10~q $end
$var wire 1 F" inst|inst99|inst3|inst3~0_combout $end
$var wire 1 G" inst99|inst~1_combout $end
$var wire 1 H" MEMO_J2|inst|inst7~1_combout $end
$var wire 1 I" MEMO_J2|inst7|inst10~0_combout $end
$var wire 1 J" MEMO_J2|inst7|inst10~q $end
$var wire 1 K" MEMO_J1|inst|inst7~1_combout $end
$var wire 1 L" MEMO_J1|inst7|inst10~0_combout $end
$var wire 1 M" MEMO_J1|inst7|inst10~q $end
$var wire 1 N" inst|inst99|inst4|inst3~0_combout $end
$var wire 1 O" MEMO_J1|inst3|inst10~0_combout $end
$var wire 1 P" MEMO_J1|inst3|inst10~q $end
$var wire 1 Q" MEMO_J2|inst3|inst10~0_combout $end
$var wire 1 R" MEMO_J2|inst3|inst10~q $end
$var wire 1 S" inst|inst99|inst1|inst3~0_combout $end
$var wire 1 T" inst99|inst~0_combout $end
$var wire 1 U" inst99|inst~2_combout $end
$var wire 1 V" inst99|inst~3_combout $end
$var wire 1 W" MEMO_J2|inst10|inst10~0_combout $end
$var wire 1 X" MEMO_J2|inst10|inst10~1_combout $end
$var wire 1 Y" MEMO_J2|inst10|inst10~2_combout $end
$var wire 1 Z" MEMO_J2|inst10|inst10~q $end
$var wire 1 [" inst|inst99|inst74|inst3~0_combout $end
$var wire 1 \" inst99|inst~4_combout $end
$var wire 1 ]" inst99|inst~5_combout $end
$var wire 1 ^" PARTIDA_QUADROS|VISOR0|inst|e_and~0_combout $end
$var wire 1 _" PARTIDA_QUADROS|VISOR1|inst|e_and~0_combout $end
$var wire 1 `" PARTIDA_QUADROS|VISOR2|inst|e_and~0_combout $end
$var wire 1 a" PARTIDA_QUADROS|VISOR3|inst|e_and~0_combout $end
$var wire 1 b" PARTIDA_QUADROS|VISOR4|inst|e_and~0_combout $end
$var wire 1 c" PARTIDA_QUADROS|VISOR5|inst|e_and~0_combout $end
$var wire 1 d" PARTIDA_QUADROS|VISOR6|inst|e_and~0_combout $end
$var wire 1 e" PARTIDA_QUADROS|VISOR7|inst|e_and~0_combout $end
$var wire 1 f" PARTIDA_QUADROS|VISOR8|inst|e_and~0_combout $end
$upscope $end
$upscope $end
$enddefinitions $end
#0
$dumpvars
1!
0"
0#
0$
b1001 %
b0 &
0'
1.
1-
1,
1+
1*
1)
1(
15
14
13
12
11
10
1/
1<
1;
1:
19
18
17
16
1C
1B
1A
1@
1?
1>
1=
1J
1I
1H
1G
1F
1E
1D
1Q
1P
1O
1N
1M
1L
1K
1X
1W
1V
1U
1T
1S
1R
1_
1^
1]
1\
1[
1Z
1Y
1f
1e
1d
1c
1b
1a
1`
0o
0n
0m
0l
0k
0j
0i
0h
0g
0p
0q
0r
1s
xt
1u
1v
1w
0x
0y
0z
1{
1|
1}
1~
1!!
1"!
1#!
1$!
1%!
1&!
1'!
1(!
1)!
1*!
1+!
1,!
1-!
1.!
1/!
10!
11!
12!
13!
14!
15!
16!
17!
18!
19!
1:!
1;!
1<!
1=!
1>!
1?!
1@!
1A!
1B!
1C!
1D!
1E!
1F!
1G!
1H!
1I!
1J!
1K!
1L!
1M!
1N!
1O!
1P!
1Q!
1R!
1S!
1T!
1U!
1V!
1W!
1X!
1Y!
1Z!
1[!
0\!
0]!
0^!
0_!
0`!
0a!
0b!
0c!
0d!
0e!
0f!
0g!
0h!
1i!
1j!
0k!
1l!
1m!
1n!
0o!
0p!
0q!
0r!
0s!
0t!
0u!
0v!
0w!
0x!
0y!
0z!
0{!
0|!
0}!
0~!
1!"
0""
0#"
1$"
0%"
0&"
0'"
0("
0)"
0*"
0+"
0,"
0-"
0."
1/"
10"
01"
02"
03"
04"
05"
06"
07"
08"
09"
0:"
0;"
0<"
0="
0>"
0?"
1@"
0A"
0B"
0C"
0D"
0E"
0F"
0G"
0H"
0I"
0J"
0K"
0L"
0M"
0N"
0O"
0P"
0Q"
0R"
0S"
0T"
0U"
0V"
0W"
0X"
0Y"
0Z"
0["
0\"
0]"
1^"
1_"
1`"
1a"
1b"
1c"
1d"
1e"
1f"
$end
#10000
1#
1e!
1f!
11"
1k!
1z
0U!
0l!
0`
1q
1C"
0/"
#20000
b1 %
b0 %
1"
b10 &
0#
1h!
1z!
0n!
0m!
0e!
0f!
1u!
0j!
1W"
19"
0$"
1Q"
#30000
1#
1e!
1f!
1R"
0k!
0z
0u!
1l!
0q
0_"
1["
1j!
1\!
0&!
0)!
0W"
09"
1$"
04
01
1g
#40000
b1000 %
0"
b0 &
0#
0h!
0z!
1m!
0e!
0f!
0C"
1+"
1,"
#50000
1#
1e!
1f!
1-"
1k!
1z
0N!
0l!
0Y
1q
0["
1S"
1c!
0\!
1C"
0+"
0g
1n
#60000
0!
b0 %
0#
0i!
0m!
0e!
0f!
#70000
1#
1e!
1f!
#80000
b1 &
1"
0#
1v!
1h!
0e!
0f!
1u!
0j!
1W"
0@"
1x!
1%"
#90000
1#
1e!
1f!
1&"
0k!
0z
0u!
0q
0^"
1["
0S"
1."
1]!
0c!
1\!
0}
0"!
0W"
1@"
0x!
1G"
0-
0*
1g
0n
1h
#100000
b0 &
0"
0#
0v!
0h!
0e!
0f!
#110000
b100 %
b110 %
b111 %
1!
1#
1n!
1p!
1q!
1i!
1e!
1f!
1l!
1j!
1K"
0C"
0!"
1o!
16"
#120000
0#
0e!
0f!
#130000
b11 %
b1 %
b0 %
0!
1#
0n!
0p!
0q!
0i!
1e!
1f!
1C"
0o!
0K"
1!"
0l!
06"
0j!
17"
1k!
1z
0G!
15"
0R
1q
0["
1S"
0."
1'"
1j!
1d!
0]!
1c!
0\!
1T"
0G"
0g
1n
0h
1o
16"
#140000
0#
0e!
0f!
#150000
b10 &
1"
1#
1z!
1h!
1e!
1f!
1u!
0j!
1W"
19"
0$"
#160000
0#
0e!
0f!
#170000
b0 &
0"
1#
0z!
0h!
1e!
1f!
09"
1$"
0u!
1j!
0W"
0k!
0z
0q
1["
0S"
18"
1."
0'"
0j!
0d!
1]!
1^!
0c!
1\!
0T"
1G"
1g
0n
1i
1h
0o
1U"
1]"
1x
1p
#180000
b100 %
b110 %
1!
0#
1p!
1q!
1i!
0e!
0f!
1l!
#190000
1#
1e!
1f!
#200000
b10 %
b0 %
0!
0#
0p!
0q!
0i!
0e!
0f!
0l!
#210000
1#
1e!
1f!
#220000
0#
0e!
0f!
#230000
1#
1e!
1f!
#240000
0#
0e!
0f!
#250000
1#
1e!
1f!
#260000
0#
0e!
0f!
#270000
1#
1e!
1f!
#280000
0#
0e!
0f!
#290000
1#
1e!
1f!
#300000
0#
0e!
0f!
#310000
1#
1e!
1f!
#320000
0#
0e!
0f!
#330000
1#
1e!
1f!
#340000
0#
0e!
0f!
#350000
1#
1e!
1f!
#360000
0#
0e!
0f!
#370000
1#
1e!
1f!
#380000
0#
0e!
0f!
#390000
1#
1e!
1f!
#400000
0#
0e!
0f!
#410000
1#
1e!
1f!
#420000
0#
0e!
0f!
#430000
1#
1e!
1f!
#440000
0#
0e!
0f!
#450000
1#
1e!
1f!
#460000
0#
0e!
0f!
#470000
1#
1e!
1f!
#480000
0#
0e!
0f!
#490000
1#
1e!
1f!
#500000
0#
0e!
0f!
#510000
1#
1e!
1f!
#520000
0#
0e!
0f!
#530000
1#
1e!
1f!
#540000
0#
0e!
0f!
#550000
1#
1e!
1f!
#560000
0#
0e!
0f!
#570000
1#
1e!
1f!
#580000
0#
0e!
0f!
#590000
1#
1e!
1f!
#600000
0#
0e!
0f!
#610000
1#
1e!
1f!
#620000
0#
0e!
0f!
#630000
1#
1e!
1f!
#640000
0#
0e!
0f!
#650000
1#
1e!
1f!
#660000
0#
0e!
0f!
#670000
1#
1e!
1f!
#680000
0#
0e!
0f!
#690000
1#
1e!
1f!
#700000
0#
0e!
0f!
#710000
1#
1e!
1f!
#720000
0#
0e!
0f!
#730000
1#
1e!
1f!
#740000
0#
0e!
0f!
#750000
1#
1e!
1f!
#760000
0#
0e!
0f!
#770000
1#
1e!
1f!
#780000
0#
0e!
0f!
#790000
1#
1e!
1f!
#800000
0#
0e!
0f!
#810000
1#
1e!
1f!
#820000
0#
0e!
0f!
#830000
1#
1e!
1f!
#840000
0#
0e!
0f!
#850000
1#
1e!
1f!
#860000
0#
0e!
0f!
#870000
1#
1e!
1f!
#880000
0#
0e!
0f!
#890000
1#
1e!
1f!
#900000
0#
0e!
0f!
#910000
1#
1e!
1f!
#920000
0#
0e!
0f!
#930000
1#
1e!
1f!
#940000
0#
0e!
0f!
#950000
1#
1e!
1f!
#960000
0#
0e!
0f!
#970000
1#
1e!
1f!
#980000
0#
0e!
0f!
#990000
1#
1e!
1f!
